
Bot:
{"msgType":"join","data":{"name":"Okboy","key":"qaBsqrrN9NTM+g"}}


Server:
{"msgType":"join","data":{"name":"Okboy","key":"qaBsqrrN9NTM+g"}}


Bot:
{"msgType":"ping","data":{}}


Server:
{"msgType":"yourCar","data":{"name":"Okboy","color":"red"},"gameId":"3c5b94e2-17e9-4caa-aa06-5eb486759bd8"}


Bot:
{"msgType":"ping","data":{}}


Server:
{"msgType":"gameInit","data":{"race":{"track":{"id":"keimola","name":"Keimola","pieces":[{"length":100.0},{"length":100.0},{"length":100.0},{"length":100.0,"switch":true},{"radius":100,"angle":45.0},{"radius":100,"angle":45.0},{"radius":100,"angle":45.0},{"radius":100,"angle":45.0},{"radius":200,"angle":22.5,"switch":true},{"length":100.0},{"length":100.0},{"radius":200,"angle":-22.5},{"length":100.0},{"length":100.0,"switch":true},{"radius":100,"angle":-45.0},{"radius":100,"angle":-45.0},{"radius":100,"angle":-45.0},{"radius":100,"angle":-45.0},{"length":100.0,"switch":true},{"radius":100,"angle":45.0},{"radius":100,"angle":45.0},{"radius":100,"angle":45.0},{"radius":100,"angle":45.0},{"radius":200,"angle":22.5},{"radius":200,"angle":-22.5},{"length":100.0,"switch":true},{"radius":100,"angle":45.0},{"radius":100,"angle":45.0},{"length":62.0},{"radius":100,"angle":-45.0,"switch":true},{"radius":100,"angle":-45.0},{"radius":100,"angle":45.0},{"radius":100,"angle":45.0},{"radius":100,"angle":45.0},{"radius":100,"angle":45.0},{"length":100.0,"switch":true},{"length":100.0},{"length":100.0},{"length":100.0},{"length":90.0}],"lanes":[{"distanceFromCenter":-10,"index":0},{"distanceFromCenter":10,"index":1}],"startingPoint":{"position":{"x":-300.0,"y":-44.0},"angle":90.0}},"cars":[{"id":{"name":"Okboy","color":"red"},"dimensions":{"length":40.0,"width":20.0,"guideFlagPosition":10.0}}],"raceSession":{"laps":3,"maxLapTimeMs":60000,"quickRace":true}}},"gameId":"3c5b94e2-17e9-4caa-aa06-5eb486759bd8"}


Bot:
{"msgType":"ping","data":{}}


Server:
{"msgType":"carPositions","data":[{"id":{"name":"Okboy","color":"red"},"angle":0.0,"piecePosition":{"pieceIndex":0,"inPieceDistance":0.0,"lane":{"startLaneIndex":0,"endLaneIndex":0},"lap":0}}],"gameId":"3c5b94e2-17e9-4caa-aa06-5eb486759bd8"}


Bot:
{"msgType":"throttle","data":0.656}


Server:
{"msgType":"gameStart","data":null,"gameId":"3c5b94e2-17e9-4caa-aa06-5eb486759bd8","gameTick":0}


Bot:
{"msgType":"ping","data":{}}


Server:
{"msgType":"carPositions","data":[{"id":{"name":"Okboy","color":"red"},"angle":0.0,"piecePosition":{"pieceIndex":0,"inPieceDistance":0.0,"lane":{"startLaneIndex":0,"endLaneIndex":0},"lap":0}}],"gameId":"3c5b94e2-17e9-4caa-aa06-5eb486759bd8","gameTick":1}


Bot:
{"msgType":"throttle","data":0.656}


Server:
{"msgType":"carPositions","data":[{"id":{"name":"Okboy","color":"red"},"angle":0.0,"piecePosition":{"pieceIndex":0,"inPieceDistance":0.0,"lane":{"startLaneIndex":0,"endLaneIndex":0},"lap":0}}],"gameId":"3c5b94e2-17e9-4caa-aa06-5eb486759bd8","gameTick":2}


Bot:
{"msgType":"throttle","data":0.656}


Server:
{"msgType":"carPositions","data":[{"id":{"name":"Okboy","color":"red"},"angle":0.0,"piecePosition":{"pieceIndex":0,"inPieceDistance":0.1312,"lane":{"startLaneIndex":0,"endLaneIndex":0},"lap":0}}],"gameId":"3c5b94e2-17e9-4caa-aa06-5eb486759bd8","gameTick":3}


Bot:
{"msgType":"throttle","data":0.656}


Server:
{"msgType":"carPositions","data":[{"id":{"name":"Okboy","color":"red"},"angle":0.0,"piecePosition":{"pieceIndex":0,"inPieceDistance":0.390976,"lane":{"startLaneIndex":0,"endLaneIndex":0},"lap":0}}],"gameId":"3c5b94e2-17e9-4caa-aa06-5eb486759bd8","gameTick":4}


Bot:
{"msgType":"throttle","data":0.656}


Server:
{"msgType":"carPositions","data":[{"id":{"name":"Okboy","color":"red"},"angle":0.0,"piecePosition":{"pieceIndex":0,"inPieceDistance":0.77675648,"lane":{"startLaneIndex":0,"endLaneIndex":0},"lap":0}}],"gameId":"3c5b94e2-17e9-4caa-aa06-5eb486759bd8","gameTick":5}


Bot:
{"msgType":"throttle","data":0.656}


Server:
{"msgType":"carPositions","data":[{"id":{"name":"Okboy","color":"red"},"angle":0.0,"piecePosition":{"pieceIndex":0,"inPieceDistance":1.2860213504,"lane":{"startLaneIndex":0,"endLaneIndex":0},"lap":0}}],"gameId":"3c5b94e2-17e9-4caa-aa06-5eb486759bd8","gameTick":6}


Bot:
{"msgType":"throttle","data":0.656}


Server:
{"msgType":"carPositions","data":[{"id":{"name":"Okboy","color":"red"},"angle":0.0,"piecePosition":{"pieceIndex":0,"inPieceDistance":1.9163009233919999,"lane":{"startLaneIndex":0,"endLaneIndex":0},"lap":0}}],"gameId":"3c5b94e2-17e9-4caa-aa06-5eb486759bd8","gameTick":7}


Bot:
{"msgType":"throttle","data":0.656}


Server:
{"msgType":"carPositions","data":[{"id":{"name":"Okboy","color":"red"},"angle":0.0,"piecePosition":{"pieceIndex":0,"inPieceDistance":2.66517490492416,"lane":{"startLaneIndex":0,"endLaneIndex":0},"lap":0}}],"gameId":"3c5b94e2-17e9-4caa-aa06-5eb486759bd8","gameTick":8}


Bot:
{"msgType":"throttle","data":0.656}


Server:
{"msgType":"carPositions","data":[{"id":{"name":"Okboy","color":"red"},"angle":0.0,"piecePosition":{"pieceIndex":0,"inPieceDistance":3.5302714068256766,"lane":{"startLaneIndex":0,"endLaneIndex":0},"lap":0}}],"gameId":"3c5b94e2-17e9-4caa-aa06-5eb486759bd8","gameTick":9}


Bot:
{"msgType":"throttle","data":0.656}


Server:
{"msgType":"carPositions","data":[{"id":{"name":"Okboy","color":"red"},"angle":0.0,"piecePosition":{"pieceIndex":0,"inPieceDistance":4.509265978689163,"lane":{"startLaneIndex":0,"endLaneIndex":0},"lap":0}}],"gameId":"3c5b94e2-17e9-4caa-aa06-5eb486759bd8","gameTick":10}


Bot:
{"msgType":"throttle","data":0.656}


Server:
{"msgType":"carPositions","data":[{"id":{"name":"Okboy","color":"red"},"angle":0.0,"piecePosition":{"pieceIndex":0,"inPieceDistance":5.59988065911538,"lane":{"startLaneIndex":0,"endLaneIndex":0},"lap":0}}],"gameId":"3c5b94e2-17e9-4caa-aa06-5eb486759bd8","gameTick":11}


Bot:
{"msgType":"throttle","data":0.656}


Server:
{"msgType":"carPositions","data":[{"id":{"name":"Okboy","color":"red"},"angle":0.0,"piecePosition":{"pieceIndex":0,"inPieceDistance":6.799883045933072,"lane":{"startLaneIndex":0,"endLaneIndex":0},"lap":0}}],"gameId":"3c5b94e2-17e9-4caa-aa06-5eb486759bd8","gameTick":12}


Bot:
{"msgType":"throttle","data":0.656}


Server:
{"msgType":"carPositions","data":[{"id":{"name":"Okboy","color":"red"},"angle":0.0,"piecePosition":{"pieceIndex":0,"inPieceDistance":8.107085385014411,"lane":{"startLaneIndex":0,"endLaneIndex":0},"lap":0}}],"gameId":"3c5b94e2-17e9-4caa-aa06-5eb486759bd8","gameTick":13}


Bot:
{"msgType":"throttle","data":0.656}


Server:
{"msgType":"carPositions","data":[{"id":{"name":"Okboy","color":"red"},"angle":0.0,"piecePosition":{"pieceIndex":0,"inPieceDistance":9.519343677314122,"lane":{"startLaneIndex":0,"endLaneIndex":0},"lap":0}}],"gameId":"3c5b94e2-17e9-4caa-aa06-5eb486759bd8","gameTick":14}


Bot:
{"msgType":"throttle","data":0.656}


Server:
{"msgType":"carPositions","data":[{"id":{"name":"Okboy","color":"red"},"angle":0.0,"piecePosition":{"pieceIndex":0,"inPieceDistance":11.03455680376784,"lane":{"startLaneIndex":0,"endLaneIndex":0},"lap":0}}],"gameId":"3c5b94e2-17e9-4caa-aa06-5eb486759bd8","gameTick":15}


Bot:
{"msgType":"throttle","data":0.656}


Server:
{"msgType":"carPositions","data":[{"id":{"name":"Okboy","color":"red"},"angle":0.0,"piecePosition":{"pieceIndex":0,"inPieceDistance":12.650665667692483,"lane":{"startLaneIndex":0,"endLaneIndex":0},"lap":0}}],"gameId":"3c5b94e2-17e9-4caa-aa06-5eb486759bd8","gameTick":16}


Bot:
{"msgType":"throttle","data":0.656}


Server:
{"msgType":"carPositions","data":[{"id":{"name":"Okboy","color":"red"},"angle":0.0,"piecePosition":{"pieceIndex":0,"inPieceDistance":14.365652354338632,"lane":{"startLaneIndex":0,"endLaneIndex":0},"lap":0}}],"gameId":"3c5b94e2-17e9-4caa-aa06-5eb486759bd8","gameTick":17}


Bot:
{"msgType":"throttle","data":0.656}


Server:
{"msgType":"carPositions","data":[{"id":{"name":"Okboy","color":"red"},"angle":0.0,"piecePosition":{"pieceIndex":0,"inPieceDistance":16.17753930725186,"lane":{"startLaneIndex":0,"endLaneIndex":0},"lap":0}}],"gameId":"3c5b94e2-17e9-4caa-aa06-5eb486759bd8","gameTick":18}


Bot:
{"msgType":"throttle","data":0.656}


Server:
{"msgType":"carPositions","data":[{"id":{"name":"Okboy","color":"red"},"angle":0.0,"piecePosition":{"pieceIndex":0,"inPieceDistance":18.08438852110682,"lane":{"startLaneIndex":0,"endLaneIndex":0},"lap":0}}],"gameId":"3c5b94e2-17e9-4caa-aa06-5eb486759bd8","gameTick":19}


Bot:
{"msgType":"throttle","data":0.656}


Server:
{"msgType":"carPositions","data":[{"id":{"name":"Okboy","color":"red"},"angle":0.0,"piecePosition":{"pieceIndex":0,"inPieceDistance":20.084300750684683,"lane":{"startLaneIndex":0,"endLaneIndex":0},"lap":0}}],"gameId":"3c5b94e2-17e9-4caa-aa06-5eb486759bd8","gameTick":20}


Bot:
{"msgType":"throttle","data":0.656}


Server:
{"msgType":"carPositions","data":[{"id":{"name":"Okboy","color":"red"},"angle":0.0,"piecePosition":{"pieceIndex":0,"inPieceDistance":22.17541473567099,"lane":{"startLaneIndex":0,"endLaneIndex":0},"lap":0}}],"gameId":"3c5b94e2-17e9-4caa-aa06-5eb486759bd8","gameTick":21}


Bot:
{"msgType":"throttle","data":0.656}


Server:
{"msgType":"carPositions","data":[{"id":{"name":"Okboy","color":"red"},"angle":0.0,"piecePosition":{"pieceIndex":0,"inPieceDistance":24.355906440957572,"lane":{"startLaneIndex":0,"endLaneIndex":0},"lap":0}}],"gameId":"3c5b94e2-17e9-4caa-aa06-5eb486759bd8","gameTick":22}


Bot:
{"msgType":"throttle","data":0.656}


Server:
{"msgType":"carPositions","data":[{"id":{"name":"Okboy","color":"red"},"angle":0.0,"piecePosition":{"pieceIndex":0,"inPieceDistance":26.623988312138422,"lane":{"startLaneIndex":0,"endLaneIndex":0},"lap":0}}],"gameId":"3c5b94e2-17e9-4caa-aa06-5eb486759bd8","gameTick":23}


Bot:
{"msgType":"throttle","data":0.656}


Server:
{"msgType":"carPositions","data":[{"id":{"name":"Okboy","color":"red"},"angle":0.0,"piecePosition":{"pieceIndex":0,"inPieceDistance":28.977908545895655,"lane":{"startLaneIndex":0,"endLaneIndex":0},"lap":0}}],"gameId":"3c5b94e2-17e9-4caa-aa06-5eb486759bd8","gameTick":24}


Bot:
{"msgType":"throttle","data":0.656}


Server:
{"msgType":"carPositions","data":[{"id":{"name":"Okboy","color":"red"},"angle":0.0,"piecePosition":{"pieceIndex":0,"inPieceDistance":31.415950374977744,"lane":{"startLaneIndex":0,"endLaneIndex":0},"lap":0}}],"gameId":"3c5b94e2-17e9-4caa-aa06-5eb486759bd8","gameTick":25}


Bot:
{"msgType":"throttle","data":0.656}


Server:
{"msgType":"carPositions","data":[{"id":{"name":"Okboy","color":"red"},"angle":0.0,"piecePosition":{"pieceIndex":0,"inPieceDistance":33.93643136747819,"lane":{"startLaneIndex":0,"endLaneIndex":0},"lap":0}}],"gameId":"3c5b94e2-17e9-4caa-aa06-5eb486759bd8","gameTick":26}


Bot:
{"msgType":"throttle","data":0.656}


Server:
{"msgType":"carPositions","data":[{"id":{"name":"Okboy","color":"red"},"angle":0.0,"piecePosition":{"pieceIndex":0,"inPieceDistance":36.53770274012863,"lane":{"startLaneIndex":0,"endLaneIndex":0},"lap":0}}],"gameId":"3c5b94e2-17e9-4caa-aa06-5eb486759bd8","gameTick":27}


Bot:
{"msgType":"throttle","data":0.656}


Server:
{"msgType":"carPositions","data":[{"id":{"name":"Okboy","color":"red"},"angle":0.0,"piecePosition":{"pieceIndex":0,"inPieceDistance":39.21814868532606,"lane":{"startLaneIndex":0,"endLaneIndex":0},"lap":0}}],"gameId":"3c5b94e2-17e9-4caa-aa06-5eb486759bd8","gameTick":28}


Bot:
{"msgType":"throttle","data":0.656}


Server:
{"msgType":"carPositions","data":[{"id":{"name":"Okboy","color":"red"},"angle":0.0,"piecePosition":{"pieceIndex":0,"inPieceDistance":41.976185711619536,"lane":{"startLaneIndex":0,"endLaneIndex":0},"lap":0}}],"gameId":"3c5b94e2-17e9-4caa-aa06-5eb486759bd8","gameTick":29}


Bot:
{"msgType":"throttle","data":0.656}


Server:
{"msgType":"carPositions","data":[{"id":{"name":"Okboy","color":"red"},"angle":0.0,"piecePosition":{"pieceIndex":0,"inPieceDistance":44.810261997387144,"lane":{"startLaneIndex":0,"endLaneIndex":0},"lap":0}}],"gameId":"3c5b94e2-17e9-4caa-aa06-5eb486759bd8","gameTick":30}


Bot:
{"msgType":"throttle","data":0.656}


Server:
{"msgType":"carPositions","data":[{"id":{"name":"Okboy","color":"red"},"angle":0.0,"piecePosition":{"pieceIndex":0,"inPieceDistance":47.718856757439404,"lane":{"startLaneIndex":0,"endLaneIndex":0},"lap":0}}],"gameId":"3c5b94e2-17e9-4caa-aa06-5eb486759bd8","gameTick":31}


Bot:
{"msgType":"throttle","data":0.656}


Server:
{"msgType":"carPositions","data":[{"id":{"name":"Okboy","color":"red"},"angle":0.0,"piecePosition":{"pieceIndex":0,"inPieceDistance":50.700479622290615,"lane":{"startLaneIndex":0,"endLaneIndex":0},"lap":0}}],"gameId":"3c5b94e2-17e9-4caa-aa06-5eb486759bd8","gameTick":32}


Bot:
{"msgType":"throttle","data":0.656}


Server:
{"msgType":"carPositions","data":[{"id":{"name":"Okboy","color":"red"},"angle":0.0,"piecePosition":{"pieceIndex":0,"inPieceDistance":53.753670029844805,"lane":{"startLaneIndex":0,"endLaneIndex":0},"lap":0}}],"gameId":"3c5b94e2-17e9-4caa-aa06-5eb486759bd8","gameTick":33}


Bot:
{"msgType":"throttle","data":0.656}


Server:
{"msgType":"carPositions","data":[{"id":{"name":"Okboy","color":"red"},"angle":0.0,"piecePosition":{"pieceIndex":0,"inPieceDistance":56.87699662924791,"lane":{"startLaneIndex":0,"endLaneIndex":0},"lap":0}}],"gameId":"3c5b94e2-17e9-4caa-aa06-5eb486759bd8","gameTick":34}


Bot:
{"msgType":"throttle","data":0.656}


Server:
{"msgType":"carPositions","data":[{"id":{"name":"Okboy","color":"red"},"angle":0.0,"piecePosition":{"pieceIndex":0,"inPieceDistance":60.069056696662955,"lane":{"startLaneIndex":0,"endLaneIndex":0},"lap":0}}],"gameId":"3c5b94e2-17e9-4caa-aa06-5eb486759bd8","gameTick":35}


Bot:
{"msgType":"throttle","data":0.656}


Server:
{"msgType":"carPositions","data":[{"id":{"name":"Okboy","color":"red"},"angle":0.0,"piecePosition":{"pieceIndex":0,"inPieceDistance":63.32847556272969,"lane":{"startLaneIndex":0,"endLaneIndex":0},"lap":0}}],"gameId":"3c5b94e2-17e9-4caa-aa06-5eb486759bd8","gameTick":36}


Bot:
{"msgType":"throttle","data":0.656}


Server:
{"msgType":"carPositions","data":[{"id":{"name":"Okboy","color":"red"},"angle":0.0,"piecePosition":{"pieceIndex":0,"inPieceDistance":66.6539060514751,"lane":{"startLaneIndex":0,"endLaneIndex":0},"lap":0}}],"gameId":"3c5b94e2-17e9-4caa-aa06-5eb486759bd8","gameTick":37}


Bot:
{"msgType":"throttle","data":0.656}


Server:
{"msgType":"carPositions","data":[{"id":{"name":"Okboy","color":"red"},"angle":0.0,"piecePosition":{"pieceIndex":0,"inPieceDistance":70.04402793044561,"lane":{"startLaneIndex":0,"endLaneIndex":0},"lap":0}}],"gameId":"3c5b94e2-17e9-4caa-aa06-5eb486759bd8","gameTick":38}


Bot:
{"msgType":"throttle","data":0.656}


Server:
{"msgType":"carPositions","data":[{"id":{"name":"Okboy","color":"red"},"angle":0.0,"piecePosition":{"pieceIndex":0,"inPieceDistance":73.4975473718367,"lane":{"startLaneIndex":0,"endLaneIndex":0},"lap":0}}],"gameId":"3c5b94e2-17e9-4caa-aa06-5eb486759bd8","gameTick":39}


Bot:
{"msgType":"throttle","data":0.656}


Server:
{"msgType":"carPositions","data":[{"id":{"name":"Okboy","color":"red"},"angle":0.0,"piecePosition":{"pieceIndex":0,"inPieceDistance":77.01319642439996,"lane":{"startLaneIndex":0,"endLaneIndex":0},"lap":0}}],"gameId":"3c5b94e2-17e9-4caa-aa06-5eb486759bd8","gameTick":40}


Bot:
{"msgType":"throttle","data":0.656}


Server:
{"msgType":"carPositions","data":[{"id":{"name":"Okboy","color":"red"},"angle":0.0,"piecePosition":{"pieceIndex":0,"inPieceDistance":80.58973249591196,"lane":{"startLaneIndex":0,"endLaneIndex":0},"lap":0}}],"gameId":"3c5b94e2-17e9-4caa-aa06-5eb486759bd8","gameTick":41}


Bot:
{"msgType":"throttle","data":0.656}


Server:
{"msgType":"carPositions","data":[{"id":{"name":"Okboy","color":"red"},"angle":0.0,"piecePosition":{"pieceIndex":0,"inPieceDistance":84.22593784599373,"lane":{"startLaneIndex":0,"endLaneIndex":0},"lap":0}}],"gameId":"3c5b94e2-17e9-4caa-aa06-5eb486759bd8","gameTick":42}


Bot:
{"msgType":"throttle","data":0.656}


Server:
{"msgType":"carPositions","data":[{"id":{"name":"Okboy","color":"red"},"angle":0.0,"piecePosition":{"pieceIndex":0,"inPieceDistance":87.92061908907385,"lane":{"startLaneIndex":0,"endLaneIndex":0},"lap":0}}],"gameId":"3c5b94e2-17e9-4caa-aa06-5eb486759bd8","gameTick":43}


Bot:
{"msgType":"throttle","data":0.656}


Server:
{"msgType":"carPositions","data":[{"id":{"name":"Okboy","color":"red"},"angle":0.0,"piecePosition":{"pieceIndex":0,"inPieceDistance":91.67260670729237,"lane":{"startLaneIndex":0,"endLaneIndex":0},"lap":0}}],"gameId":"3c5b94e2-17e9-4caa-aa06-5eb486759bd8","gameTick":44}


Bot:
{"msgType":"throttle","data":0.656}


Server:
{"msgType":"carPositions","data":[{"id":{"name":"Okboy","color":"red"},"angle":0.0,"piecePosition":{"pieceIndex":0,"inPieceDistance":95.48075457314653,"lane":{"startLaneIndex":0,"endLaneIndex":0},"lap":0}}],"gameId":"3c5b94e2-17e9-4caa-aa06-5eb486759bd8","gameTick":45}


Bot:
{"msgType":"throttle","data":0.656}


Server:
{"msgType":"carPositions","data":[{"id":{"name":"Okboy","color":"red"},"angle":0.0,"piecePosition":{"pieceIndex":0,"inPieceDistance":99.34393948168359,"lane":{"startLaneIndex":0,"endLaneIndex":0},"lap":0}}],"gameId":"3c5b94e2-17e9-4caa-aa06-5eb486759bd8","gameTick":46}


Bot:
{"msgType":"throttle","data":0.656}


Server:
{"msgType":"carPositions","data":[{"id":{"name":"Okboy","color":"red"},"angle":0.0,"piecePosition":{"pieceIndex":1,"inPieceDistance":3.2610606920499237,"lane":{"startLaneIndex":0,"endLaneIndex":0},"lap":0}}],"gameId":"3c5b94e2-17e9-4caa-aa06-5eb486759bd8","gameTick":47}


Bot:
{"msgType":"throttle","data":0.656}


Server:
{"msgType":"carPositions","data":[{"id":{"name":"Okboy","color":"red"},"angle":0.0,"piecePosition":{"pieceIndex":1,"inPieceDistance":7.231039478208926,"lane":{"startLaneIndex":0,"endLaneIndex":0},"lap":0}}],"gameId":"3c5b94e2-17e9-4caa-aa06-5eb486759bd8","gameTick":48}


Bot:
{"msgType":"throttle","data":0.656}


Server:
{"msgType":"carPositions","data":[{"id":{"name":"Okboy","color":"red"},"angle":0.0,"piecePosition":{"pieceIndex":1,"inPieceDistance":11.252818688644748,"lane":{"startLaneIndex":0,"endLaneIndex":0},"lap":0}}],"gameId":"3c5b94e2-17e9-4caa-aa06-5eb486759bd8","gameTick":49}


Bot:
{"msgType":"throttle","data":0.656}


Server:
{"msgType":"carPositions","data":[{"id":{"name":"Okboy","color":"red"},"angle":0.0,"piecePosition":{"pieceIndex":1,"inPieceDistance":15.325362314871853,"lane":{"startLaneIndex":0,"endLaneIndex":0},"lap":0}}],"gameId":"3c5b94e2-17e9-4caa-aa06-5eb486759bd8","gameTick":50}


Bot:
{"msgType":"throttle","data":0.656}


Server:
{"msgType":"carPositions","data":[{"id":{"name":"Okboy","color":"red"},"angle":0.0,"piecePosition":{"pieceIndex":1,"inPieceDistance":19.447655068574417,"lane":{"startLaneIndex":0,"endLaneIndex":0},"lap":0}}],"gameId":"3c5b94e2-17e9-4caa-aa06-5eb486759bd8","gameTick":51}


Bot:
{"msgType":"throttle","data":0.656}


Server:
{"msgType":"carPositions","data":[{"id":{"name":"Okboy","color":"red"},"angle":0.0,"piecePosition":{"pieceIndex":1,"inPieceDistance":23.618701967202927,"lane":{"startLaneIndex":0,"endLaneIndex":0},"lap":0}}],"gameId":"3c5b94e2-17e9-4caa-aa06-5eb486759bd8","gameTick":52}


Bot:
{"msgType":"throttle","data":0.656}


Server:
{"msgType":"carPositions","data":[{"id":{"name":"Okboy","color":"red"},"angle":0.0,"piecePosition":{"pieceIndex":1,"inPieceDistance":27.83752792785887,"lane":{"startLaneIndex":0,"endLaneIndex":0},"lap":0}}],"gameId":"3c5b94e2-17e9-4caa-aa06-5eb486759bd8","gameTick":53}


Bot:
{"msgType":"throttle","data":0.656}


Server:
{"msgType":"carPositions","data":[{"id":{"name":"Okboy","color":"red"},"angle":0.0,"piecePosition":{"pieceIndex":1,"inPieceDistance":32.10317736930169,"lane":{"startLaneIndex":0,"endLaneIndex":0},"lap":0}}],"gameId":"3c5b94e2-17e9-4caa-aa06-5eb486759bd8","gameTick":54}


Bot:
{"msgType":"throttle","data":0.656}


Server:
{"msgType":"carPositions","data":[{"id":{"name":"Okboy","color":"red"},"angle":0.0,"piecePosition":{"pieceIndex":1,"inPieceDistance":36.414713821915655,"lane":{"startLaneIndex":0,"endLaneIndex":0},"lap":0}}],"gameId":"3c5b94e2-17e9-4caa-aa06-5eb486759bd8","gameTick":55}


Bot:
{"msgType":"throttle","data":0.656}


Server:
{"msgType":"carPositions","data":[{"id":{"name":"Okboy","color":"red"},"angle":0.0,"piecePosition":{"pieceIndex":1,"inPieceDistance":40.771219545477344,"lane":{"startLaneIndex":0,"endLaneIndex":0},"lap":0}}],"gameId":"3c5b94e2-17e9-4caa-aa06-5eb486759bd8","gameTick":56}


Bot:
{"msgType":"throttle","data":0.656}


Server:
{"msgType":"carPositions","data":[{"id":{"name":"Okboy","color":"red"},"angle":0.0,"piecePosition":{"pieceIndex":1,"inPieceDistance":45.171795154567796,"lane":{"startLaneIndex":0,"endLaneIndex":0},"lap":0}}],"gameId":"3c5b94e2-17e9-4caa-aa06-5eb486759bd8","gameTick":57}


Bot:
{"msgType":"throttle","data":0.656}


Server:
{"msgType":"carPositions","data":[{"id":{"name":"Okboy","color":"red"},"angle":0.0,"piecePosition":{"pieceIndex":1,"inPieceDistance":49.61555925147644,"lane":{"startLaneIndex":0,"endLaneIndex":0},"lap":0}}],"gameId":"3c5b94e2-17e9-4caa-aa06-5eb486759bd8","gameTick":58}


Bot:
{"msgType":"throttle","data":0.656}


Server:
{"msgType":"carPositions","data":[{"id":{"name":"Okboy","color":"red"},"angle":0.0,"piecePosition":{"pieceIndex":1,"inPieceDistance":54.10164806644691,"lane":{"startLaneIndex":0,"endLaneIndex":0},"lap":0}}],"gameId":"3c5b94e2-17e9-4caa-aa06-5eb486759bd8","gameTick":59}


Bot:
{"msgType":"throttle","data":0.656}


Server:
{"msgType":"carPositions","data":[{"id":{"name":"Okboy","color":"red"},"angle":0.0,"piecePosition":{"pieceIndex":1,"inPieceDistance":58.62921510511797,"lane":{"startLaneIndex":0,"endLaneIndex":0},"lap":0}}],"gameId":"3c5b94e2-17e9-4caa-aa06-5eb486759bd8","gameTick":60}


Bot:
{"msgType":"throttle","data":0.656}


Server:
{"msgType":"carPositions","data":[{"id":{"name":"Okboy","color":"red"},"angle":0.0,"piecePosition":{"pieceIndex":1,"inPieceDistance":63.197430803015614,"lane":{"startLaneIndex":0,"endLaneIndex":0},"lap":0}}],"gameId":"3c5b94e2-17e9-4caa-aa06-5eb486759bd8","gameTick":61}


Bot:
{"msgType":"throttle","data":0.656}


Server:
{"msgType":"carPositions","data":[{"id":{"name":"Okboy","color":"red"},"angle":0.0,"piecePosition":{"pieceIndex":1,"inPieceDistance":67.8054821869553,"lane":{"startLaneIndex":0,"endLaneIndex":0},"lap":0}}],"gameId":"3c5b94e2-17e9-4caa-aa06-5eb486759bd8","gameTick":62}


Bot:
{"msgType":"throttle","data":0.656}


Server:
{"msgType":"carPositions","data":[{"id":{"name":"Okboy","color":"red"},"angle":0.0,"piecePosition":{"pieceIndex":1,"inPieceDistance":72.45257254321619,"lane":{"startLaneIndex":0,"endLaneIndex":0},"lap":0}}],"gameId":"3c5b94e2-17e9-4caa-aa06-5eb486759bd8","gameTick":63}


Bot:
{"msgType":"throttle","data":0.656}


Server:
{"msgType":"carPositions","data":[{"id":{"name":"Okboy","color":"red"},"angle":0.0,"piecePosition":{"pieceIndex":1,"inPieceDistance":77.13792109235186,"lane":{"startLaneIndex":0,"endLaneIndex":0},"lap":0}}],"gameId":"3c5b94e2-17e9-4caa-aa06-5eb486759bd8","gameTick":64}


Bot:
{"msgType":"throttle","data":0.656}


Server:
{"msgType":"carPositions","data":[{"id":{"name":"Okboy","color":"red"},"angle":0.0,"piecePosition":{"pieceIndex":1,"inPieceDistance":81.86076267050483,"lane":{"startLaneIndex":0,"endLaneIndex":0},"lap":0}}],"gameId":"3c5b94e2-17e9-4caa-aa06-5eb486759bd8","gameTick":65}


Bot:
{"msgType":"throttle","data":0.656}


Server:
{"msgType":"carPositions","data":[{"id":{"name":"Okboy","color":"red"},"angle":0.0,"piecePosition":{"pieceIndex":1,"inPieceDistance":86.62034741709473,"lane":{"startLaneIndex":0,"endLaneIndex":0},"lap":0}}],"gameId":"3c5b94e2-17e9-4caa-aa06-5eb486759bd8","gameTick":66}


Bot:
{"msgType":"throttle","data":0.656}


Server:
{"msgType":"carPositions","data":[{"id":{"name":"Okboy","color":"red"},"angle":0.0,"piecePosition":{"pieceIndex":1,"inPieceDistance":91.41594046875284,"lane":{"startLaneIndex":0,"endLaneIndex":0},"lap":0}}],"gameId":"3c5b94e2-17e9-4caa-aa06-5eb486759bd8","gameTick":67}


Bot:
{"msgType":"throttle","data":0.656}


Server:
{"msgType":"carPositions","data":[{"id":{"name":"Okboy","color":"red"},"angle":0.0,"piecePosition":{"pieceIndex":1,"inPieceDistance":96.24682165937777,"lane":{"startLaneIndex":0,"endLaneIndex":0},"lap":0}}],"gameId":"3c5b94e2-17e9-4caa-aa06-5eb486759bd8","gameTick":68}


Bot:
{"msgType":"throttle","data":0.656}


Server:
{"msgType":"carPositions","data":[{"id":{"name":"Okboy","color":"red"},"angle":0.0,"piecePosition":{"pieceIndex":2,"inPieceDistance":1.1122852261902096,"lane":{"startLaneIndex":0,"endLaneIndex":0},"lap":0}}],"gameId":"3c5b94e2-17e9-4caa-aa06-5eb486759bd8","gameTick":69}


Bot:
{"msgType":"throttle","data":0.656}


Server:
{"msgType":"carPositions","data":[{"id":{"name":"Okboy","color":"red"},"angle":0.0,"piecePosition":{"pieceIndex":2,"inPieceDistance":6.011639521666403,"lane":{"startLaneIndex":0,"endLaneIndex":0},"lap":0}}],"gameId":"3c5b94e2-17e9-4caa-aa06-5eb486759bd8","gameTick":70}


Bot:
{"msgType":"throttle","data":0.656}


Server:
{"msgType":"carPositions","data":[{"id":{"name":"Okboy","color":"red"},"angle":0.0,"piecePosition":{"pieceIndex":2,"inPieceDistance":10.944206731233074,"lane":{"startLaneIndex":0,"endLaneIndex":0},"lap":0}}],"gameId":"3c5b94e2-17e9-4caa-aa06-5eb486759bd8","gameTick":71}


Bot:
{"msgType":"throttle","data":0.656}


Server:
{"msgType":"carPositions","data":[{"id":{"name":"Okboy","color":"red"},"angle":0.0,"piecePosition":{"pieceIndex":2,"inPieceDistance":15.909322596608408,"lane":{"startLaneIndex":0,"endLaneIndex":0},"lap":0}}],"gameId":"3c5b94e2-17e9-4caa-aa06-5eb486759bd8","gameTick":72}


Bot:
{"msgType":"throttle","data":0.656}


Server:
{"msgType":"carPositions","data":[{"id":{"name":"Okboy","color":"red"},"angle":0.0,"piecePosition":{"pieceIndex":2,"inPieceDistance":20.90633614467624,"lane":{"startLaneIndex":0,"endLaneIndex":0},"lap":0}}],"gameId":"3c5b94e2-17e9-4caa-aa06-5eb486759bd8","gameTick":73}


Bot:
{"msgType":"throttle","data":0.656}


Server:
{"msgType":"carPositions","data":[{"id":{"name":"Okboy","color":"red"},"angle":0.0,"piecePosition":{"pieceIndex":2,"inPieceDistance":25.93460942178271,"lane":{"startLaneIndex":0,"endLaneIndex":0},"lap":0}}],"gameId":"3c5b94e2-17e9-4caa-aa06-5eb486759bd8","gameTick":74}


Bot:
{"msgType":"throttle","data":0.656}


Server:
{"msgType":"carPositions","data":[{"id":{"name":"Okboy","color":"red"},"angle":0.0,"piecePosition":{"pieceIndex":2,"inPieceDistance":30.993517233347053,"lane":{"startLaneIndex":0,"endLaneIndex":0},"lap":0}}],"gameId":"3c5b94e2-17e9-4caa-aa06-5eb486759bd8","gameTick":75}


Bot:
{"msgType":"throttle","data":0.656}


Server:
{"msgType":"carPositions","data":[{"id":{"name":"Okboy","color":"red"},"angle":0.0,"piecePosition":{"pieceIndex":2,"inPieceDistance":36.08244688868011,"lane":{"startLaneIndex":0,"endLaneIndex":0},"lap":0}}],"gameId":"3c5b94e2-17e9-4caa-aa06-5eb486759bd8","gameTick":76}


Bot:
{"msgType":"throttle","data":0.656}


Server:
{"msgType":"carPositions","data":[{"id":{"name":"Okboy","color":"red"},"angle":0.0,"piecePosition":{"pieceIndex":2,"inPieceDistance":41.200797950906505,"lane":{"startLaneIndex":0,"endLaneIndex":0},"lap":0}}],"gameId":"3c5b94e2-17e9-4caa-aa06-5eb486759bd8","gameTick":77}


Bot:
{"msgType":"throttle","data":0.656}


Server:
{"msgType":"carPositions","data":[{"id":{"name":"Okboy","color":"red"},"angle":0.0,"piecePosition":{"pieceIndex":2,"inPieceDistance":46.347981991888375,"lane":{"startLaneIndex":0,"endLaneIndex":0},"lap":0}}],"gameId":"3c5b94e2-17e9-4caa-aa06-5eb486759bd8","gameTick":78}


Bot:
{"msgType":"throttle","data":0.656}


Server:
{"msgType":"carPositions","data":[{"id":{"name":"Okboy","color":"red"},"angle":0.0,"piecePosition":{"pieceIndex":2,"inPieceDistance":51.5234223520506,"lane":{"startLaneIndex":0,"endLaneIndex":0},"lap":0}}],"gameId":"3c5b94e2-17e9-4caa-aa06-5eb486759bd8","gameTick":79}


Bot:
{"msgType":"throttle","data":0.656}


Server:
{"msgType":"carPositions","data":[{"id":{"name":"Okboy","color":"red"},"angle":0.0,"piecePosition":{"pieceIndex":2,"inPieceDistance":56.72655390500959,"lane":{"startLaneIndex":0,"endLaneIndex":0},"lap":0}}],"gameId":"3c5b94e2-17e9-4caa-aa06-5eb486759bd8","gameTick":80}


Bot:
{"msgType":"throttle","data":0.656}


Server:
{"msgType":"carPositions","data":[{"id":{"name":"Okboy","color":"red"},"angle":0.0,"piecePosition":{"pieceIndex":2,"inPieceDistance":61.956822826909395,"lane":{"startLaneIndex":0,"endLaneIndex":0},"lap":0}}],"gameId":"3c5b94e2-17e9-4caa-aa06-5eb486759bd8","gameTick":81}


Bot:
{"msgType":"throttle","data":0.656}


Server:
{"msgType":"carPositions","data":[{"id":{"name":"Okboy","color":"red"},"angle":0.0,"piecePosition":{"pieceIndex":2,"inPieceDistance":67.2136863703712,"lane":{"startLaneIndex":0,"endLaneIndex":0},"lap":0}}],"gameId":"3c5b94e2-17e9-4caa-aa06-5eb486759bd8","gameTick":82}


Bot:
{"msgType":"throttle","data":0.656}


Server:
{"msgType":"carPositions","data":[{"id":{"name":"Okboy","color":"red"},"angle":0.0,"piecePosition":{"pieceIndex":2,"inPieceDistance":72.49661264296378,"lane":{"startLaneIndex":0,"endLaneIndex":0},"lap":0}}],"gameId":"3c5b94e2-17e9-4caa-aa06-5eb486759bd8","gameTick":83}


Bot:
{"msgType":"throttle","data":0.656}


Server:
{"msgType":"carPositions","data":[{"id":{"name":"Okboy","color":"red"},"angle":0.0,"piecePosition":{"pieceIndex":2,"inPieceDistance":77.80508039010451,"lane":{"startLaneIndex":0,"endLaneIndex":0},"lap":0}}],"gameId":"3c5b94e2-17e9-4caa-aa06-5eb486759bd8","gameTick":84}


Bot:
{"msgType":"throttle","data":0.656}


Server:
{"msgType":"carPositions","data":[{"id":{"name":"Okboy","color":"red"},"angle":0.0,"piecePosition":{"pieceIndex":2,"inPieceDistance":83.13857878230242,"lane":{"startLaneIndex":0,"endLaneIndex":0},"lap":0}}],"gameId":"3c5b94e2-17e9-4caa-aa06-5eb486759bd8","gameTick":85}


Bot:
{"msgType":"throttle","data":0.656}


Server:
{"msgType":"carPositions","data":[{"id":{"name":"Okboy","color":"red"},"angle":0.0,"piecePosition":{"pieceIndex":2,"inPieceDistance":88.49660720665636,"lane":{"startLaneIndex":0,"endLaneIndex":0},"lap":0}}],"gameId":"3c5b94e2-17e9-4caa-aa06-5eb486759bd8","gameTick":86}


Bot:
{"msgType":"throttle","data":0.656}


Server:
{"msgType":"carPositions","data":[{"id":{"name":"Okboy","color":"red"},"angle":0.0,"piecePosition":{"pieceIndex":2,"inPieceDistance":93.87867506252323,"lane":{"startLaneIndex":0,"endLaneIndex":0},"lap":0}}],"gameId":"3c5b94e2-17e9-4caa-aa06-5eb486759bd8","gameTick":87}


Bot:
{"msgType":"throttle","data":0.656}


Server:
{"msgType":"carPositions","data":[{"id":{"name":"Okboy","color":"red"},"angle":0.0,"piecePosition":{"pieceIndex":2,"inPieceDistance":99.28430156127276,"lane":{"startLaneIndex":0,"endLaneIndex":0},"lap":0}}],"gameId":"3c5b94e2-17e9-4caa-aa06-5eb486759bd8","gameTick":88}


Bot:
{"msgType":"throttle","data":0.656}


Server:
{"msgType":"carPositions","data":[{"id":{"name":"Okboy","color":"red"},"angle":0.0,"piecePosition":{"pieceIndex":3,"inPieceDistance":4.713015530047301,"lane":{"startLaneIndex":0,"endLaneIndex":0},"lap":0}}],"gameId":"3c5b94e2-17e9-4caa-aa06-5eb486759bd8","gameTick":89}


Bot:
{"msgType":"throttle","data":0.656}


Server:
{"msgType":"carPositions","data":[{"id":{"name":"Okboy","color":"red"},"angle":0.0,"piecePosition":{"pieceIndex":3,"inPieceDistance":10.164355219446351,"lane":{"startLaneIndex":0,"endLaneIndex":0},"lap":0}}],"gameId":"3c5b94e2-17e9-4caa-aa06-5eb486759bd8","gameTick":90}


Bot:
{"msgType":"throttle","data":0.656}


Server:
{"msgType":"carPositions","data":[{"id":{"name":"Okboy","color":"red"},"angle":0.0,"piecePosition":{"pieceIndex":3,"inPieceDistance":15.63786811505742,"lane":{"startLaneIndex":0,"endLaneIndex":0},"lap":0}}],"gameId":"3c5b94e2-17e9-4caa-aa06-5eb486759bd8","gameTick":91}


Bot:
{"msgType":"throttle","data":0.656}


Server:
{"msgType":"carPositions","data":[{"id":{"name":"Okboy","color":"red"},"angle":0.0,"piecePosition":{"pieceIndex":3,"inPieceDistance":21.133110752756266,"lane":{"startLaneIndex":0,"endLaneIndex":0},"lap":0}}],"gameId":"3c5b94e2-17e9-4caa-aa06-5eb486759bd8","gameTick":92}


Bot:
{"msgType":"throttle","data":0.656}


Server:
{"msgType":"carPositions","data":[{"id":{"name":"Okboy","color":"red"},"angle":0.0,"piecePosition":{"pieceIndex":3,"inPieceDistance":26.649648537701136,"lane":{"startLaneIndex":0,"endLaneIndex":0},"lap":0}}],"gameId":"3c5b94e2-17e9-4caa-aa06-5eb486759bd8","gameTick":93}


Bot:
{"msgType":"throttle","data":0.656}


Server:
{"msgType":"carPositions","data":[{"id":{"name":"Okboy","color":"red"},"angle":0.0,"piecePosition":{"pieceIndex":3,"inPieceDistance":32.18705556694711,"lane":{"startLaneIndex":0,"endLaneIndex":0},"lap":0}}],"gameId":"3c5b94e2-17e9-4caa-aa06-5eb486759bd8","gameTick":94}


Bot:
{"msgType":"throttle","data":0.656}


Server:
{"msgType":"carPositions","data":[{"id":{"name":"Okboy","color":"red"},"angle":0.0,"piecePosition":{"pieceIndex":3,"inPieceDistance":37.74491445560816,"lane":{"startLaneIndex":0,"endLaneIndex":0},"lap":0}}],"gameId":"3c5b94e2-17e9-4caa-aa06-5eb486759bd8","gameTick":95}


Bot:
{"msgType":"throttle","data":0.656}


Server:
{"msgType":"carPositions","data":[{"id":{"name":"Okboy","color":"red"},"angle":0.0,"piecePosition":{"pieceIndex":3,"inPieceDistance":43.322816166496,"lane":{"startLaneIndex":0,"endLaneIndex":0},"lap":0}}],"gameId":"3c5b94e2-17e9-4caa-aa06-5eb486759bd8","gameTick":96}


Bot:
{"msgType":"throttle","data":0.656}


Server:
{"msgType":"carPositions","data":[{"id":{"name":"Okboy","color":"red"},"angle":0.0,"piecePosition":{"pieceIndex":3,"inPieceDistance":48.920359843166075,"lane":{"startLaneIndex":0,"endLaneIndex":0},"lap":0}}],"gameId":"3c5b94e2-17e9-4caa-aa06-5eb486759bd8","gameTick":97}


Bot:
{"msgType":"throttle","data":0.656}


Server:
{"msgType":"carPositions","data":[{"id":{"name":"Okboy","color":"red"},"angle":0.0,"piecePosition":{"pieceIndex":3,"inPieceDistance":54.53715264630275,"lane":{"startLaneIndex":0,"endLaneIndex":0},"lap":0}}],"gameId":"3c5b94e2-17e9-4caa-aa06-5eb486759bd8","gameTick":98}


Bot:
{"msgType":"throttle","data":0.656}


Server:
{"msgType":"carPositions","data":[{"id":{"name":"Okboy","color":"red"},"angle":0.0,"piecePosition":{"pieceIndex":3,"inPieceDistance":60.17280959337669,"lane":{"startLaneIndex":0,"endLaneIndex":0},"lap":0}}],"gameId":"3c5b94e2-17e9-4caa-aa06-5eb486759bd8","gameTick":99}


Bot:
{"msgType":"throttle","data":0.656}


Server:
{"msgType":"carPositions","data":[{"id":{"name":"Okboy","color":"red"},"angle":0.0,"piecePosition":{"pieceIndex":3,"inPieceDistance":65.82695340150916,"lane":{"startLaneIndex":0,"endLaneIndex":0},"lap":0}}],"gameId":"3c5b94e2-17e9-4caa-aa06-5eb486759bd8","gameTick":100}


Bot:
{"msgType":"throttle","data":0.656}


Server:
{"msgType":"carPositions","data":[{"id":{"name":"Okboy","color":"red"},"angle":0.0,"piecePosition":{"pieceIndex":3,"inPieceDistance":71.49921433347897,"lane":{"startLaneIndex":0,"endLaneIndex":0},"lap":0}}],"gameId":"3c5b94e2-17e9-4caa-aa06-5eb486759bd8","gameTick":101}


Bot:
{"msgType":"throttle","data":0.656}


Server:
{"msgType":"carPositions","data":[{"id":{"name":"Okboy","color":"red"},"angle":0.0,"piecePosition":{"pieceIndex":3,"inPieceDistance":77.18923004680939,"lane":{"startLaneIndex":0,"endLaneIndex":0},"lap":0}}],"gameId":"3c5b94e2-17e9-4caa-aa06-5eb486759bd8","gameTick":102}


Bot:
{"msgType":"throttle","data":0.656}


Server:
{"msgType":"carPositions","data":[{"id":{"name":"Okboy","color":"red"},"angle":0.0,"piecePosition":{"pieceIndex":3,"inPieceDistance":82.89664544587319,"lane":{"startLaneIndex":0,"endLaneIndex":0},"lap":0}}],"gameId":"3c5b94e2-17e9-4caa-aa06-5eb486759bd8","gameTick":103}


Bot:
{"msgType":"throttle","data":0.656}


Server:
{"msgType":"carPositions","data":[{"id":{"name":"Okboy","color":"red"},"angle":0.0,"piecePosition":{"pieceIndex":3,"inPieceDistance":88.62111253695572,"lane":{"startLaneIndex":0,"endLaneIndex":0},"lap":0}}],"gameId":"3c5b94e2-17e9-4caa-aa06-5eb486759bd8","gameTick":104}


Bot:
{"msgType":"throttle","data":0.656}


Server:
{"msgType":"carPositions","data":[{"id":{"name":"Okboy","color":"red"},"angle":0.0,"piecePosition":{"pieceIndex":3,"inPieceDistance":94.3622902862166,"lane":{"startLaneIndex":0,"endLaneIndex":0},"lap":0}}],"gameId":"3c5b94e2-17e9-4caa-aa06-5eb486759bd8","gameTick":105}


Bot:
{"msgType":"throttle","data":0.656}


Server:
{"msgType":"carPositions","data":[{"id":{"name":"Okboy","color":"red"},"angle":0.0,"piecePosition":{"pieceIndex":4,"inPieceDistance":0.1198444804922758,"lane":{"startLaneIndex":0,"endLaneIndex":0},"lap":0}}],"gameId":"3c5b94e2-17e9-4caa-aa06-5eb486759bd8","gameTick":106}


Bot:
{"msgType":"throttle","data":0.656}


Server:
{"msgType":"carPositions","data":[{"id":{"name":"Okboy","color":"red"},"angle":0.0,"piecePosition":{"pieceIndex":4,"inPieceDistance":5.893447590882427,"lane":{"startLaneIndex":0,"endLaneIndex":0},"lap":0}}],"gameId":"3c5b94e2-17e9-4caa-aa06-5eb486759bd8","gameTick":107}


Bot:
{"msgType":"throttle","data":0.656}


Server:
{"msgType":"carPositions","data":[{"id":{"name":"Okboy","color":"red"},"angle":0.0,"piecePosition":{"pieceIndex":4,"inPieceDistance":11.682778639064775,"lane":{"startLaneIndex":0,"endLaneIndex":0},"lap":0}}],"gameId":"3c5b94e2-17e9-4caa-aa06-5eb486759bd8","gameTick":108}


Bot:
{"msgType":"throttle","data":0.656}


Server:
{"msgType":"carPositions","data":[{"id":{"name":"Okboy","color":"red"},"angle":0.0,"piecePosition":{"pieceIndex":4,"inPieceDistance":17.487523066283476,"lane":{"startLaneIndex":0,"endLaneIndex":0},"lap":0}}],"gameId":"3c5b94e2-17e9-4caa-aa06-5eb486759bd8","gameTick":109}


Bot:
{"msgType":"throttle","data":0.656}


Server:
{"msgType":"carPositions","data":[{"id":{"name":"Okboy","color":"red"},"angle":0.0,"piecePosition":{"pieceIndex":4,"inPieceDistance":23.307372604957802,"lane":{"startLaneIndex":0,"endLaneIndex":0},"lap":0}}],"gameId":"3c5b94e2-17e9-4caa-aa06-5eb486759bd8","gameTick":110}


Bot:
{"msgType":"throttle","data":0.656}


Server:
{"msgType":"carPositions","data":[{"id":{"name":"Okboy","color":"red"},"angle":0.0,"piecePosition":{"pieceIndex":4,"inPieceDistance":29.142025152858643,"lane":{"startLaneIndex":0,"endLaneIndex":0},"lap":0}}],"gameId":"3c5b94e2-17e9-4caa-aa06-5eb486759bd8","gameTick":111}


Bot:
{"msgType":"throttle","data":0.656}


Server:
{"msgType":"carPositions","data":[{"id":{"name":"Okboy","color":"red"},"angle":0.0,"piecePosition":{"pieceIndex":4,"inPieceDistance":34.99118464980147,"lane":{"startLaneIndex":0,"endLaneIndex":0},"lap":0}}],"gameId":"3c5b94e2-17e9-4caa-aa06-5eb486759bd8","gameTick":112}


Bot:
{"msgType":"throttle","data":0.656}


Server:
{"msgType":"carPositions","data":[{"id":{"name":"Okboy","color":"red"},"angle":0.0,"piecePosition":{"pieceIndex":4,"inPieceDistance":40.854560956805436,"lane":{"startLaneIndex":0,"endLaneIndex":0},"lap":0}}],"gameId":"3c5b94e2-17e9-4caa-aa06-5eb486759bd8","gameTick":113}


Bot:
{"msgType":"throttle","data":0.656}


Server:
{"msgType":"carPositions","data":[{"id":{"name":"Okboy","color":"red"},"angle":0.0,"piecePosition":{"pieceIndex":4,"inPieceDistance":46.73186973766933,"lane":{"startLaneIndex":0,"endLaneIndex":0},"lap":0}}],"gameId":"3c5b94e2-17e9-4caa-aa06-5eb486759bd8","gameTick":114}


Bot:
{"msgType":"throttle","data":0.656}


Server:
{"msgType":"carPositions","data":[{"id":{"name":"Okboy","color":"red"},"angle":0.0,"piecePosition":{"pieceIndex":4,"inPieceDistance":52.62283234291594,"lane":{"startLaneIndex":0,"endLaneIndex":0},"lap":0}}],"gameId":"3c5b94e2-17e9-4caa-aa06-5eb486759bd8","gameTick":115}


Bot:
{"msgType":"throttle","data":0.656}


Server:
{"msgType":"carPositions","data":[{"id":{"name":"Okboy","color":"red"},"angle":0.0,"piecePosition":{"pieceIndex":4,"inPieceDistance":58.52717569605762,"lane":{"startLaneIndex":0,"endLaneIndex":0},"lap":0}}],"gameId":"3c5b94e2-17e9-4caa-aa06-5eb486759bd8","gameTick":116}


Bot:
{"msgType":"throttle","data":0.656}


Server:
{"msgType":"carPositions","data":[{"id":{"name":"Okboy","color":"red"},"angle":0.0,"piecePosition":{"pieceIndex":4,"inPieceDistance":64.44463218213646,"lane":{"startLaneIndex":0,"endLaneIndex":0},"lap":0}}],"gameId":"3c5b94e2-17e9-4caa-aa06-5eb486759bd8","gameTick":117}


Bot:
{"msgType":"throttle","data":0.656}


Server:
{"msgType":"carPositions","data":[{"id":{"name":"Okboy","color":"red"},"angle":0.0,"piecePosition":{"pieceIndex":4,"inPieceDistance":70.37493953849372,"lane":{"startLaneIndex":0,"endLaneIndex":0},"lap":0}}],"gameId":"3c5b94e2-17e9-4caa-aa06-5eb486759bd8","gameTick":118}


Bot:
{"msgType":"throttle","data":0.656}


Server:
{"msgType":"carPositions","data":[{"id":{"name":"Okboy","color":"red"},"angle":0.0,"piecePosition":{"pieceIndex":4,"inPieceDistance":76.31784074772385,"lane":{"startLaneIndex":0,"endLaneIndex":0},"lap":0}}],"gameId":"3c5b94e2-17e9-4caa-aa06-5eb486759bd8","gameTick":119}


Bot:
{"msgType":"throttle","data":0.656}


Server:
{"msgType":"carPositions","data":[{"id":{"name":"Okboy","color":"red"},"angle":0.002987724301601249,"piecePosition":{"pieceIndex":4,"inPieceDistance":82.27308393276937,"lane":{"startLaneIndex":0,"endLaneIndex":0},"lap":0}}],"gameId":"3c5b94e2-17e9-4caa-aa06-5eb486759bd8","gameTick":120}


Bot:
{"msgType":"throttle","data":0.656}


Server:
{"msgType":"carPositions","data":[{"id":{"name":"Okboy","color":"red"},"angle":0.01236486428724904,"piecePosition":{"pieceIndex":5,"inPieceDistance":1.8466242803946642,"lane":{"startLaneIndex":0,"endLaneIndex":0},"lap":0}}],"gameId":"3c5b94e2-17e9-4caa-aa06-5eb486759bd8","gameTick":121}


Bot:
{"msgType":"throttle","data":0.656}


Server:
{"msgType":"carPositions","data":[{"id":{"name":"Okboy","color":"red"},"angle":0.031085683514816956,"piecePosition":{"pieceIndex":5,"inPieceDistance":7.825815835312382,"lane":{"startLaneIndex":0,"endLaneIndex":0},"lap":0}}],"gameId":"3c5b94e2-17e9-4caa-aa06-5eb486759bd8","gameTick":122}


Bot:
{"msgType":"throttle","data":0.656}


Server:
{"msgType":"carPositions","data":[{"id":{"name":"Okboy","color":"red"},"angle":0.061679997398338605,"piecePosition":{"pieceIndex":5,"inPieceDistance":13.816623559131745,"lane":{"startLaneIndex":0,"endLaneIndex":0},"lap":0}}],"gameId":"3c5b94e2-17e9-4caa-aa06-5eb486759bd8","gameTick":123}


Bot:
{"msgType":"throttle","data":0.656}


Server:
{"msgType":"carPositions","data":[{"id":{"name":"Okboy","color":"red"},"angle":0.10627688457692477,"piecePosition":{"pieceIndex":5,"inPieceDistance":19.81881512847472,"lane":{"startLaneIndex":0,"endLaneIndex":0},"lap":0}}],"gameId":"3c5b94e2-17e9-4caa-aa06-5eb486759bd8","gameTick":124}


Bot:
{"msgType":"throttle","data":0.656}


Server:
{"msgType":"carPositions","data":[{"id":{"name":"Okboy","color":"red"},"angle":0.1666289161468266,"piecePosition":{"pieceIndex":5,"inPieceDistance":25.83216286643084,"lane":{"startLaneIndex":0,"endLaneIndex":0},"lap":0}}],"gameId":"3c5b94e2-17e9-4caa-aa06-5eb486759bd8","gameTick":125}


Bot:
{"msgType":"throttle","data":0.656}


Server:
{"msgType":"carPositions","data":[{"id":{"name":"Okboy","color":"red"},"angle":0.2441367023536388,"piecePosition":{"pieceIndex":5,"inPieceDistance":31.85644364962783,"lane":{"startLaneIndex":0,"endLaneIndex":0},"lap":0}}],"gameId":"3c5b94e2-17e9-4caa-aa06-5eb486759bd8","gameTick":126}


Bot:
{"msgType":"throttle","data":0.656}


Server:
{"msgType":"carPositions","data":[{"id":{"name":"Okboy","color":"red"},"angle":0.3398735701135052,"piecePosition":{"pieceIndex":5,"inPieceDistance":37.89143881716088,"lane":{"startLaneIndex":0,"endLaneIndex":0},"lap":0}}],"gameId":"3c5b94e2-17e9-4caa-aa06-5eb486759bd8","gameTick":127}


Bot:
{"msgType":"throttle","data":0.656}


Server:
{"msgType":"carPositions","data":[{"id":{"name":"Okboy","color":"red"},"angle":0.4546101987293998,"piecePosition":{"pieceIndex":5,"inPieceDistance":43.936934081343274,"lane":{"startLaneIndex":0,"endLaneIndex":0},"lap":0}}],"gameId":"3c5b94e2-17e9-4caa-aa06-5eb486759bd8","gameTick":128}


Bot:
{"msgType":"throttle","data":0.656}


Server:
{"msgType":"carPositions","data":[{"id":{"name":"Okboy","color":"red"},"angle":0.5888390552740254,"piecePosition":{"pieceIndex":5,"inPieceDistance":49.99271944024202,"lane":{"startLaneIndex":0,"endLaneIndex":0},"lap":0}}],"gameId":"3c5b94e2-17e9-4caa-aa06-5eb486759bd8","gameTick":129}


Bot:
{"msgType":"throttle","data":0.656}


Server:
{"msgType":"carPositions","data":[{"id":{"name":"Okboy","color":"red"},"angle":0.742798485215333,"piecePosition":{"pieceIndex":5,"inPieceDistance":56.05858909196279,"lane":{"startLaneIndex":0,"endLaneIndex":0},"lap":0}}],"gameId":"3c5b94e2-17e9-4caa-aa06-5eb486759bd8","gameTick":130}


Bot:
{"msgType":"throttle","data":0.656}


Server:
{"msgType":"carPositions","data":[{"id":{"name":"Okboy","color":"red"},"angle":0.9164963278629579,"piecePosition":{"pieceIndex":5,"inPieceDistance":62.134341350649144,"lane":{"startLaneIndex":0,"endLaneIndex":0},"lap":0}}],"gameId":"3c5b94e2-17e9-4caa-aa06-5eb486759bd8","gameTick":131}


Bot:
{"msgType":"throttle","data":0.656}


Server:
{"msgType":"carPositions","data":[{"id":{"name":"Okboy","color":"red"},"angle":1.1097329400211762,"piecePosition":{"pieceIndex":5,"inPieceDistance":68.21977856416177,"lane":{"startLaneIndex":0,"endLaneIndex":0},"lap":0}}],"gameId":"3c5b94e2-17e9-4caa-aa06-5eb486759bd8","gameTick":132}


Bot:
{"msgType":"throttle","data":0.656}


Server:
{"msgType":"carPositions","data":[{"id":{"name":"Okboy","color":"red"},"angle":1.322123524761921,"piecePosition":{"pieceIndex":5,"inPieceDistance":74.31470703340415,"lane":{"startLaneIndex":0,"endLaneIndex":0},"lap":0}}],"gameId":"3c5b94e2-17e9-4caa-aa06-5eb486759bd8","gameTick":133}


Bot:
{"msgType":"throttle","data":0.656}


Server:
{"msgType":"carPositions","data":[{"id":{"name":"Okboy","color":"red"},"angle":1.5531196754040681,"piecePosition":{"pieceIndex":5,"inPieceDistance":80.41893693326168,"lane":{"startLaneIndex":0,"endLaneIndex":0},"lap":0}}],"gameId":"3c5b94e2-17e9-4caa-aa06-5eb486759bd8","gameTick":134}


Bot:
{"msgType":"throttle","data":0.656}


Server:
{"msgType":"carPositions","data":[{"id":{"name":"Okboy","color":"red"},"angle":1.8020300575351706,"piecePosition":{"pieceIndex":6,"inPieceDistance":0.13848426140273773,"lane":{"startLaneIndex":0,"endLaneIndex":0},"lap":0}}],"gameId":"3c5b94e2-17e9-4caa-aa06-5eb486759bd8","gameTick":135}


Bot:
{"msgType":"throttle","data":0.656}


Server:
{"msgType":"carPositions","data":[{"id":{"name":"Okboy","color":"red"},"angle":2.0680401641799877,"piecePosition":{"pieceIndex":6,"inPieceDistance":6.260762657225906,"lane":{"startLaneIndex":0,"endLaneIndex":0},"lap":0}}],"gameId":"3c5b94e2-17e9-4caa-aa06-5eb486759bd8","gameTick":136}


Bot:
{"msgType":"throttle","data":0.656}


Server:
{"msgType":"carPositions","data":[{"id":{"name":"Okboy","color":"red"},"angle":2.350231090955603,"piecePosition":{"pieceIndex":6,"inPieceDistance":12.391795485132612,"lane":{"startLaneIndex":0,"endLaneIndex":0},"lap":0}}],"gameId":"3c5b94e2-17e9-4caa-aa06-5eb486759bd8","gameTick":137}


Bot:
{"msgType":"throttle","data":0.656}


Server:
{"msgType":"carPositions","data":[{"id":{"name":"Okboy","color":"red"},"angle":2.647597289212689,"piecePosition":{"pieceIndex":6,"inPieceDistance":18.531407656481182,"lane":{"startLaneIndex":0,"endLaneIndex":0},"lap":0}}],"gameId":"3c5b94e2-17e9-4caa-aa06-5eb486759bd8","gameTick":138}


Bot:
{"msgType":"throttle","data":0.656}


Server:
{"msgType":"carPositions","data":[{"id":{"name":"Okboy","color":"red"},"angle":2.9590632657112725,"piecePosition":{"pieceIndex":6,"inPieceDistance":24.67942758440278,"lane":{"startLaneIndex":0,"endLaneIndex":0},"lap":0}}],"gameId":"3c5b94e2-17e9-4caa-aa06-5eb486759bd8","gameTick":139}


Bot:
{"msgType":"throttle","data":0.656}


Server:
{"msgType":"carPositions","data":[{"id":{"name":"Okboy","color":"red"},"angle":3.2834992072892693,"piecePosition":{"pieceIndex":6,"inPieceDistance":30.83568711376595,"lane":{"startLaneIndex":0,"endLaneIndex":0},"lap":0}}],"gameId":"3c5b94e2-17e9-4caa-aa06-5eb486759bd8","gameTick":140}


Bot:
{"msgType":"throttle","data":0.656}


Server:
{"msgType":"carPositions","data":[{"id":{"name":"Okboy","color":"red"},"angle":3.6197355182321664,"piecePosition":{"pieceIndex":6,"inPieceDistance":37.00002145254185,"lane":{"startLaneIndex":0,"endLaneIndex":0},"lap":0}}],"gameId":"3c5b94e2-17e9-4caa-aa06-5eb486759bd8","gameTick":141}


Bot:
{"msgType":"throttle","data":0.656}


Server:
{"msgType":"carPositions","data":[{"id":{"name":"Okboy","color":"red"},"angle":3.966576266628275,"piecePosition":{"pieceIndex":6,"inPieceDistance":43.17226910454224,"lane":{"startLaneIndex":0,"endLaneIndex":0},"lap":0}}],"gameId":"3c5b94e2-17e9-4caa-aa06-5eb486759bd8","gameTick":142}


Bot:
{"msgType":"throttle","data":0.656}


Server:
{"msgType":"carPositions","data":[{"id":{"name":"Okboy","color":"red"},"angle":4.32281154388787,"piecePosition":{"pieceIndex":6,"inPieceDistance":49.35227180350262,"lane":{"startLaneIndex":0,"endLaneIndex":0},"lap":0}}],"gameId":"3c5b94e2-17e9-4caa-aa06-5eb486759bd8","gameTick":143}


Bot:
{"msgType":"throttle","data":0.656}


Server:
{"msgType":"carPositions","data":[{"id":{"name":"Okboy","color":"red"},"angle":4.687228748814029,"piecePosition":{"pieceIndex":6,"inPieceDistance":55.539874448483786,"lane":{"startLaneIndex":0,"endLaneIndex":0},"lap":0}}],"gameId":"3c5b94e2-17e9-4caa-aa06-5eb486759bd8","gameTick":144}


Bot:
{"msgType":"throttle","data":0.656}


Server:
{"msgType":"carPositions","data":[{"id":{"name":"Okboy","color":"red"},"angle":5.058622814141136,"piecePosition":{"pieceIndex":6,"inPieceDistance":61.73492504056534,"lane":{"startLaneIndex":0,"endLaneIndex":0},"lap":0}}],"gameId":"3c5b94e2-17e9-4caa-aa06-5eb486759bd8","gameTick":145}


Bot:
{"msgType":"throttle","data":0.656}


Server:
{"msgType":"carPositions","data":[{"id":{"name":"Okboy","color":"red"},"angle":5.43580539931181,"piecePosition":{"pieceIndex":6,"inPieceDistance":67.93727462080525,"lane":{"startLaneIndex":0,"endLaneIndex":0},"lap":0}}],"gameId":"3c5b94e2-17e9-4caa-aa06-5eb486759bd8","gameTick":146}


Bot:
{"msgType":"throttle","data":0.656}


Server:
{"msgType":"carPositions","data":[{"id":{"name":"Okboy","color":"red"},"angle":5.817613078456891,"piecePosition":{"pieceIndex":6,"inPieceDistance":74.14677720944037,"lane":{"startLaneIndex":0,"endLaneIndex":0},"lap":0}}],"gameId":"3c5b94e2-17e9-4caa-aa06-5eb486759bd8","gameTick":147}


Bot:
{"msgType":"throttle","data":0.656}


Server:
{"msgType":"carPositions","data":[{"id":{"name":"Okboy","color":"red"},"angle":6.202914557092444,"piecePosition":{"pieceIndex":6,"inPieceDistance":80.36328974630278,"lane":{"startLaneIndex":0,"endLaneIndex":0},"lap":0}}],"gameId":"3c5b94e2-17e9-4caa-aa06-5eb486759bd8","gameTick":148}


Bot:
{"msgType":"throttle","data":0.656}


Server:
{"msgType":"carPositions","data":[{"id":{"name":"Okboy","color":"red"},"angle":6.590616954972488,"piecePosition":{"pieceIndex":7,"inPieceDistance":0.1928740587086395,"lane":{"startLaneIndex":0,"endLaneIndex":0},"lap":0}}],"gameId":"3c5b94e2-17e9-4caa-aa06-5eb486759bd8","gameTick":149}


Bot:
{"msgType":"throttle","data":0.656}


Server:
{"msgType":"carPositions","data":[{"id":{"name":"Okboy","color":"red"},"angle":6.979671195859395,"piecePosition":{"pieceIndex":7,"inPieceDistance":6.422988699111303,"lane":{"startLaneIndex":0,"endLaneIndex":0},"lap":0}}],"gameId":"3c5b94e2-17e9-4caa-aa06-5eb486759bd8","gameTick":150}


Bot:
{"msgType":"throttle","data":0.656}


Server:
{"msgType":"carPositions","data":[{"id":{"name":"Okboy","color":"red"},"angle":7.369076547721272,"piecePosition":{"pieceIndex":7,"inPieceDistance":12.659701046705914,"lane":{"startLaneIndex":0,"endLaneIndex":0},"lap":0}}],"gameId":"3c5b94e2-17e9-4caa-aa06-5eb486759bd8","gameTick":151}


Bot:
{"msgType":"throttle","data":0.656}


Server:
{"msgType":"carPositions","data":[{"id":{"name":"Okboy","color":"red"},"angle":7.757884359065131,"piecePosition":{"pieceIndex":7,"inPieceDistance":18.90287914734863,"lane":{"startLaneIndex":0,"endLaneIndex":0},"lap":0}}],"gameId":"3c5b94e2-17e9-4caa-aa06-5eb486759bd8","gameTick":152}


Bot:
{"msgType":"throttle","data":0.656}


Server:
{"msgType":"carPositions","data":[{"id":{"name":"Okboy","color":"red"},"angle":8.145201038796092,"piecePosition":{"pieceIndex":7,"inPieceDistance":25.152393685978495,"lane":{"startLaneIndex":0,"endLaneIndex":0},"lap":0}}],"gameId":"3c5b94e2-17e9-4caa-aa06-5eb486759bd8","gameTick":153}


Bot:
{"msgType":"throttle","data":0.656}


Server:
{"msgType":"carPositions","data":[{"id":{"name":"Okboy","color":"red"},"angle":8.530190328187377,"piecePosition":{"pieceIndex":7,"inPieceDistance":31.40811793383576,"lane":{"startLaneIndex":0,"endLaneIndex":0},"lap":0}}],"gameId":"3c5b94e2-17e9-4caa-aa06-5eb486759bd8","gameTick":154}


Bot:
{"msgType":"throttle","data":0.656}


Server:
{"msgType":"carPositions","data":[{"id":{"name":"Okboy","color":"red"},"angle":8.912074914285931,"piecePosition":{"pieceIndex":7,"inPieceDistance":37.66992769673588,"lane":{"startLaneIndex":0,"endLaneIndex":0},"lap":0}}],"gameId":"3c5b94e2-17e9-4caa-aa06-5eb486759bd8","gameTick":155}


Bot:
{"msgType":"throttle","data":0.656}


Server:
{"msgType":"carPositions","data":[{"id":{"name":"Okboy","color":"red"},"angle":9.290137434397087,"piecePosition":{"pieceIndex":7,"inPieceDistance":43.937701264378,"lane":{"startLaneIndex":0,"endLaneIndex":0},"lap":0}}],"gameId":"3c5b94e2-17e9-4caa-aa06-5eb486759bd8","gameTick":156}


Bot:
{"msgType":"throttle","data":0.656}


Server:
{"msgType":"carPositions","data":[{"id":{"name":"Okboy","color":"red"},"angle":9.663720921222398,"piecePosition":{"pieceIndex":7,"inPieceDistance":50.211319360667275,"lane":{"startLaneIndex":0,"endLaneIndex":0},"lap":0}}],"gameId":"3c5b94e2-17e9-4caa-aa06-5eb486759bd8","gameTick":157}


Bot:
{"msgType":"throttle","data":0.656}


Server:
{"msgType":"carPositions","data":[{"id":{"name":"Okboy","color":"red"},"angle":10.032228737801132,"piecePosition":{"pieceIndex":7,"inPieceDistance":56.490665095030764,"lane":{"startLaneIndex":0,"endLaneIndex":0},"lap":0}}],"gameId":"3c5b94e2-17e9-4caa-aa06-5eb486759bd8","gameTick":158}


Bot:
{"msgType":"throttle","data":0.656}


Server:
{"msgType":"carPositions","data":[{"id":{"name":"Okboy","color":"red"},"angle":10.395124050661536,"piecePosition":{"pieceIndex":7,"inPieceDistance":62.77562391470698,"lane":{"startLaneIndex":0,"endLaneIndex":0},"lap":0}}],"gameId":"3c5b94e2-17e9-4caa-aa06-5eb486759bd8","gameTick":159}


Bot:
{"msgType":"throttle","data":0.656}


Server:
{"msgType":"carPositions","data":[{"id":{"name":"Okboy","color":"red"},"angle":10.751928888555835,"piecePosition":{"pieceIndex":7,"inPieceDistance":69.06608355798969,"lane":{"startLaneIndex":0,"endLaneIndex":0},"lap":0}}],"gameId":"3c5b94e2-17e9-4caa-aa06-5eb486759bd8","gameTick":160}


Bot:
{"msgType":"throttle","data":0.656}


Server:
{"msgType":"carPositions","data":[{"id":{"name":"Okboy","color":"red"},"angle":11.102222832865603,"piecePosition":{"pieceIndex":7,"inPieceDistance":75.36193400840673,"lane":{"startLaneIndex":0,"endLaneIndex":0},"lap":0}}],"gameId":"3c5b94e2-17e9-4caa-aa06-5eb486759bd8","gameTick":161}


Bot:
{"msgType":"throttle","data":0.656}


Server:
{"msgType":"carPositions","data":[{"id":{"name":"Okboy","color":"red"},"angle":11.445641384253172,"piecePosition":{"pieceIndex":7,"inPieceDistance":81.66306744981544,"lane":{"startLaneIndex":0,"endLaneIndex":0},"lap":0}}],"gameId":"3c5b94e2-17e9-4caa-aa06-5eb486759bd8","gameTick":162}


Bot:
{"msgType":"throttle","data":0.656}


Server:
{"msgType":"carPositions","data":[{"id":{"name":"Okboy","color":"red"},"angle":11.78187404843083,"piecePosition":{"pieceIndex":8,"inPieceDistance":1.5755802486766584,"lane":{"startLaneIndex":0,"endLaneIndex":0},"lap":0}}],"gameId":"3c5b94e2-17e9-4caa-aa06-5eb486759bd8","gameTick":163}


Bot:
{"msgType":"switchLane","data":"right"}


Server:
{"msgType":"carPositions","data":[{"id":{"name":"Okboy","color":"red"},"angle":11.991608247149713,"piecePosition":{"pieceIndex":8,"inPieceDistance":7.886964805805576,"lane":{"startLaneIndex":0,"endLaneIndex":0},"lap":0}}],"gameId":"3c5b94e2-17e9-4caa-aa06-5eb486759bd8","gameTick":164}


Bot:
{"msgType":"switchLane","data":"right"}

