
Bot:
{"msgType":"join","data":{"name":"Okboy","key":"qaBsqrrN9NTM+g"}}


Server:
{"msgType":"join","data":{"name":"Okboy","key":"qaBsqrrN9NTM+g"}}


Bot:
{"msgType":"ping","data":{}}


Server:
{"msgType":"yourCar","data":{"name":"Okboy","color":"red"},"gameId":"558422a7-bde6-415f-a971-c30c88f67ce3"}


Bot:
{"msgType":"ping","data":{}}


Server:
{"msgType":"gameInit","data":{"race":{"track":{"id":"keimola","name":"Keimola","pieces":[{"length":100.0},{"length":100.0},{"length":100.0},{"length":100.0,"switch":true},{"radius":100,"angle":45.0},{"radius":100,"angle":45.0},{"radius":100,"angle":45.0},{"radius":100,"angle":45.0},{"radius":200,"angle":22.5,"switch":true},{"length":100.0},{"length":100.0},{"radius":200,"angle":-22.5},{"length":100.0},{"length":100.0,"switch":true},{"radius":100,"angle":-45.0},{"radius":100,"angle":-45.0},{"radius":100,"angle":-45.0},{"radius":100,"angle":-45.0},{"length":100.0,"switch":true},{"radius":100,"angle":45.0},{"radius":100,"angle":45.0},{"radius":100,"angle":45.0},{"radius":100,"angle":45.0},{"radius":200,"angle":22.5},{"radius":200,"angle":-22.5},{"length":100.0,"switch":true},{"radius":100,"angle":45.0},{"radius":100,"angle":45.0},{"length":62.0},{"radius":100,"angle":-45.0,"switch":true},{"radius":100,"angle":-45.0},{"radius":100,"angle":45.0},{"radius":100,"angle":45.0},{"radius":100,"angle":45.0},{"radius":100,"angle":45.0},{"length":100.0,"switch":true},{"length":100.0},{"length":100.0},{"length":100.0},{"length":90.0}],"lanes":[{"distanceFromCenter":-10,"index":0},{"distanceFromCenter":10,"index":1}],"startingPoint":{"position":{"x":-300.0,"y":-44.0},"angle":90.0}},"cars":[{"id":{"name":"Okboy","color":"red"},"dimensions":{"length":40.0,"width":20.0,"guideFlagPosition":10.0}}],"raceSession":{"laps":3,"maxLapTimeMs":60000,"quickRace":true}}},"gameId":"558422a7-bde6-415f-a971-c30c88f67ce3"}


Bot:
{"msgType":"ping","data":{}}


Server:
{"msgType":"carPositions","data":[{"id":{"name":"Okboy","color":"red"},"angle":0.0,"piecePosition":{"pieceIndex":0,"inPieceDistance":0.0,"lane":{"startLaneIndex":0,"endLaneIndex":0},"lap":0}}],"gameId":"558422a7-bde6-415f-a971-c30c88f67ce3"}


Bot:
{"msgType":"throttle","data":0.657}


Server:
{"msgType":"gameStart","data":null,"gameId":"558422a7-bde6-415f-a971-c30c88f67ce3","gameTick":0}


Bot:
{"msgType":"ping","data":{}}


Server:
{"msgType":"carPositions","data":[{"id":{"name":"Okboy","color":"red"},"angle":0.0,"piecePosition":{"pieceIndex":0,"inPieceDistance":0.0,"lane":{"startLaneIndex":0,"endLaneIndex":0},"lap":0}}],"gameId":"558422a7-bde6-415f-a971-c30c88f67ce3","gameTick":1}


Bot:
{"msgType":"throttle","data":0.657}


Server:
{"msgType":"carPositions","data":[{"id":{"name":"Okboy","color":"red"},"angle":0.0,"piecePosition":{"pieceIndex":0,"inPieceDistance":0.0,"lane":{"startLaneIndex":0,"endLaneIndex":0},"lap":0}}],"gameId":"558422a7-bde6-415f-a971-c30c88f67ce3","gameTick":2}


Bot:
{"msgType":"throttle","data":0.657}


Server:
{"msgType":"carPositions","data":[{"id":{"name":"Okboy","color":"red"},"angle":0.0,"piecePosition":{"pieceIndex":0,"inPieceDistance":0.13140000000000002,"lane":{"startLaneIndex":0,"endLaneIndex":0},"lap":0}}],"gameId":"558422a7-bde6-415f-a971-c30c88f67ce3","gameTick":3}


Bot:
{"msgType":"throttle","data":0.657}


Server:
{"msgType":"carPositions","data":[{"id":{"name":"Okboy","color":"red"},"angle":0.0,"piecePosition":{"pieceIndex":0,"inPieceDistance":0.3915720000000001,"lane":{"startLaneIndex":0,"endLaneIndex":0},"lap":0}}],"gameId":"558422a7-bde6-415f-a971-c30c88f67ce3","gameTick":4}


Bot:
{"msgType":"throttle","data":0.657}


Server:
{"msgType":"carPositions","data":[{"id":{"name":"Okboy","color":"red"},"angle":0.0,"piecePosition":{"pieceIndex":0,"inPieceDistance":0.7779405600000002,"lane":{"startLaneIndex":0,"endLaneIndex":0},"lap":0}}],"gameId":"558422a7-bde6-415f-a971-c30c88f67ce3","gameTick":5}


Bot:
{"msgType":"throttle","data":0.657}


Server:
{"msgType":"carPositions","data":[{"id":{"name":"Okboy","color":"red"},"angle":0.0,"piecePosition":{"pieceIndex":0,"inPieceDistance":1.2879817488000003,"lane":{"startLaneIndex":0,"endLaneIndex":0},"lap":0}}],"gameId":"558422a7-bde6-415f-a971-c30c88f67ce3","gameTick":6}


Bot:
{"msgType":"throttle","data":0.657}


Server:
{"msgType":"carPositions","data":[{"id":{"name":"Okboy","color":"red"},"angle":0.0,"piecePosition":{"pieceIndex":0,"inPieceDistance":1.9192221138240004,"lane":{"startLaneIndex":0,"endLaneIndex":0},"lap":0}}],"gameId":"558422a7-bde6-415f-a971-c30c88f67ce3","gameTick":7}


Bot:
{"msgType":"throttle","data":0.657}


Server:
{"msgType":"carPositions","data":[{"id":{"name":"Okboy","color":"red"},"angle":0.0,"piecePosition":{"pieceIndex":0,"inPieceDistance":2.6692376715475206,"lane":{"startLaneIndex":0,"endLaneIndex":0},"lap":0}}],"gameId":"558422a7-bde6-415f-a971-c30c88f67ce3","gameTick":8}


Bot:
{"msgType":"throttle","data":0.657}


Server:
{"msgType":"carPositions","data":[{"id":{"name":"Okboy","color":"red"},"angle":0.0,"piecePosition":{"pieceIndex":0,"inPieceDistance":3.53565291811657,"lane":{"startLaneIndex":0,"endLaneIndex":0},"lap":0}}],"gameId":"558422a7-bde6-415f-a971-c30c88f67ce3","gameTick":9}


Bot:
{"msgType":"throttle","data":0.657}


Server:
{"msgType":"carPositions","data":[{"id":{"name":"Okboy","color":"red"},"angle":0.0,"piecePosition":{"pieceIndex":0,"inPieceDistance":4.516139859754238,"lane":{"startLaneIndex":0,"endLaneIndex":0},"lap":0}}],"gameId":"558422a7-bde6-415f-a971-c30c88f67ce3","gameTick":10}


Bot:
{"msgType":"throttle","data":0.657}


Server:
{"msgType":"carPositions","data":[{"id":{"name":"Okboy","color":"red"},"angle":0.0,"piecePosition":{"pieceIndex":0,"inPieceDistance":5.608417062559154,"lane":{"startLaneIndex":0,"endLaneIndex":0},"lap":0}}],"gameId":"558422a7-bde6-415f-a971-c30c88f67ce3","gameTick":11}


Bot:
{"msgType":"throttle","data":0.657}


Server:
{"msgType":"carPositions","data":[{"id":{"name":"Okboy","color":"red"},"angle":0.0,"piecePosition":{"pieceIndex":0,"inPieceDistance":6.81024872130797,"lane":{"startLaneIndex":0,"endLaneIndex":0},"lap":0}}],"gameId":"558422a7-bde6-415f-a971-c30c88f67ce3","gameTick":12}


Bot:
{"msgType":"throttle","data":0.657}


Server:
{"msgType":"carPositions","data":[{"id":{"name":"Okboy","color":"red"},"angle":0.0,"piecePosition":{"pieceIndex":0,"inPieceDistance":8.11944374688181,"lane":{"startLaneIndex":0,"endLaneIndex":0},"lap":0}}],"gameId":"558422a7-bde6-415f-a971-c30c88f67ce3","gameTick":13}


Bot:
{"msgType":"throttle","data":0.657}


Server:
{"msgType":"carPositions","data":[{"id":{"name":"Okboy","color":"red"},"angle":0.0,"piecePosition":{"pieceIndex":0,"inPieceDistance":9.533854871944174,"lane":{"startLaneIndex":0,"endLaneIndex":0},"lap":0}}],"gameId":"558422a7-bde6-415f-a971-c30c88f67ce3","gameTick":14}


Bot:
{"msgType":"throttle","data":0.657}


Server:
{"msgType":"carPositions","data":[{"id":{"name":"Okboy","color":"red"},"angle":0.0,"piecePosition":{"pieceIndex":0,"inPieceDistance":11.05137777450529,"lane":{"startLaneIndex":0,"endLaneIndex":0},"lap":0}}],"gameId":"558422a7-bde6-415f-a971-c30c88f67ce3","gameTick":15}


Bot:
{"msgType":"throttle","data":0.657}


Server:
{"msgType":"carPositions","data":[{"id":{"name":"Okboy","color":"red"},"angle":0.0,"piecePosition":{"pieceIndex":0,"inPieceDistance":12.669950219015185,"lane":{"startLaneIndex":0,"endLaneIndex":0},"lap":0}}],"gameId":"558422a7-bde6-415f-a971-c30c88f67ce3","gameTick":16}


Bot:
{"msgType":"throttle","data":0.657}


Server:
{"msgType":"carPositions","data":[{"id":{"name":"Okboy","color":"red"},"angle":0.0,"piecePosition":{"pieceIndex":0,"inPieceDistance":14.38755121463488,"lane":{"startLaneIndex":0,"endLaneIndex":0},"lap":0}}],"gameId":"558422a7-bde6-415f-a971-c30c88f67ce3","gameTick":17}


Bot:
{"msgType":"throttle","data":0.657}


Server:
{"msgType":"carPositions","data":[{"id":{"name":"Okboy","color":"red"},"angle":0.0,"piecePosition":{"pieceIndex":0,"inPieceDistance":16.202200190342182,"lane":{"startLaneIndex":0,"endLaneIndex":0},"lap":0}}],"gameId":"558422a7-bde6-415f-a971-c30c88f67ce3","gameTick":18}


Bot:
{"msgType":"throttle","data":0.657}


Server:
{"msgType":"carPositions","data":[{"id":{"name":"Okboy","color":"red"},"angle":0.0,"piecePosition":{"pieceIndex":0,"inPieceDistance":18.111956186535338,"lane":{"startLaneIndex":0,"endLaneIndex":0},"lap":0}}],"gameId":"558422a7-bde6-415f-a971-c30c88f67ce3","gameTick":19}


Bot:
{"msgType":"throttle","data":0.657}


Server:
{"msgType":"carPositions","data":[{"id":{"name":"Okboy","color":"red"},"angle":0.0,"piecePosition":{"pieceIndex":0,"inPieceDistance":20.11491706280463,"lane":{"startLaneIndex":0,"endLaneIndex":0},"lap":0}}],"gameId":"558422a7-bde6-415f-a971-c30c88f67ce3","gameTick":20}


Bot:
{"msgType":"throttle","data":0.657}


Server:
{"msgType":"carPositions","data":[{"id":{"name":"Okboy","color":"red"},"angle":0.0,"piecePosition":{"pieceIndex":0,"inPieceDistance":22.209218721548538,"lane":{"startLaneIndex":0,"endLaneIndex":0},"lap":0}}],"gameId":"558422a7-bde6-415f-a971-c30c88f67ce3","gameTick":21}


Bot:
{"msgType":"throttle","data":0.657}


Server:
{"msgType":"carPositions","data":[{"id":{"name":"Okboy","color":"red"},"angle":0.0,"piecePosition":{"pieceIndex":0,"inPieceDistance":24.393034347117567,"lane":{"startLaneIndex":0,"endLaneIndex":0},"lap":0}}],"gameId":"558422a7-bde6-415f-a971-c30c88f67ce3","gameTick":22}


Bot:
{"msgType":"throttle","data":0.657}


Server:
{"msgType":"carPositions","data":[{"id":{"name":"Okboy","color":"red"},"angle":0.0,"piecePosition":{"pieceIndex":0,"inPieceDistance":26.664573660175215,"lane":{"startLaneIndex":0,"endLaneIndex":0},"lap":0}}],"gameId":"558422a7-bde6-415f-a971-c30c88f67ce3","gameTick":23}


Bot:
{"msgType":"throttle","data":0.657}


Server:
{"msgType":"carPositions","data":[{"id":{"name":"Okboy","color":"red"},"angle":0.0,"piecePosition":{"pieceIndex":0,"inPieceDistance":29.02208218697171,"lane":{"startLaneIndex":0,"endLaneIndex":0},"lap":0}}],"gameId":"558422a7-bde6-415f-a971-c30c88f67ce3","gameTick":24}


Bot:
{"msgType":"throttle","data":0.657}


Server:
{"msgType":"carPositions","data":[{"id":{"name":"Okboy","color":"red"},"angle":0.0,"piecePosition":{"pieceIndex":0,"inPieceDistance":31.463840543232273,"lane":{"startLaneIndex":0,"endLaneIndex":0},"lap":0}}],"gameId":"558422a7-bde6-415f-a971-c30c88f67ce3","gameTick":25}


Bot:
{"msgType":"throttle","data":0.657}


Server:
{"msgType":"carPositions","data":[{"id":{"name":"Okboy","color":"red"},"angle":0.0,"piecePosition":{"pieceIndex":0,"inPieceDistance":33.988163732367624,"lane":{"startLaneIndex":0,"endLaneIndex":0},"lap":0}}],"gameId":"558422a7-bde6-415f-a971-c30c88f67ce3","gameTick":26}


Bot:
{"msgType":"throttle","data":0.657}


Server:
{"msgType":"carPositions","data":[{"id":{"name":"Okboy","color":"red"},"angle":0.0,"piecePosition":{"pieceIndex":0,"inPieceDistance":36.59340045772027,"lane":{"startLaneIndex":0,"endLaneIndex":0},"lap":0}}],"gameId":"558422a7-bde6-415f-a971-c30c88f67ce3","gameTick":27}


Bot:
{"msgType":"throttle","data":0.657}


Server:
{"msgType":"carPositions","data":[{"id":{"name":"Okboy","color":"red"},"angle":0.0,"piecePosition":{"pieceIndex":0,"inPieceDistance":39.27793244856586,"lane":{"startLaneIndex":0,"endLaneIndex":0},"lap":0}}],"gameId":"558422a7-bde6-415f-a971-c30c88f67ce3","gameTick":28}


Bot:
{"msgType":"throttle","data":0.657}


Server:
{"msgType":"carPositions","data":[{"id":{"name":"Okboy","color":"red"},"angle":0.0,"piecePosition":{"pieceIndex":0,"inPieceDistance":42.04017379959455,"lane":{"startLaneIndex":0,"endLaneIndex":0},"lap":0}}],"gameId":"558422a7-bde6-415f-a971-c30c88f67ce3","gameTick":29}


Bot:
{"msgType":"throttle","data":0.657}


Server:
{"msgType":"carPositions","data":[{"id":{"name":"Okboy","color":"red"},"angle":0.0,"piecePosition":{"pieceIndex":0,"inPieceDistance":44.87857032360266,"lane":{"startLaneIndex":0,"endLaneIndex":0},"lap":0}}],"gameId":"558422a7-bde6-415f-a971-c30c88f67ce3","gameTick":30}


Bot:
{"msgType":"throttle","data":0.657}


Server:
{"msgType":"carPositions","data":[{"id":{"name":"Okboy","color":"red"},"angle":0.0,"piecePosition":{"pieceIndex":0,"inPieceDistance":47.79159891713061,"lane":{"startLaneIndex":0,"endLaneIndex":0},"lap":0}}],"gameId":"558422a7-bde6-415f-a971-c30c88f67ce3","gameTick":31}


Bot:
{"msgType":"throttle","data":0.657}


Server:
{"msgType":"carPositions","data":[{"id":{"name":"Okboy","color":"red"},"angle":0.0,"piecePosition":{"pieceIndex":0,"inPieceDistance":50.77776693878799,"lane":{"startLaneIndex":0,"endLaneIndex":0},"lap":0}}],"gameId":"558422a7-bde6-415f-a971-c30c88f67ce3","gameTick":32}


Bot:
{"msgType":"throttle","data":0.657}


Server:
{"msgType":"carPositions","data":[{"id":{"name":"Okboy","color":"red"},"angle":0.0,"piecePosition":{"pieceIndex":0,"inPieceDistance":53.83561160001223,"lane":{"startLaneIndex":0,"endLaneIndex":0},"lap":0}}],"gameId":"558422a7-bde6-415f-a971-c30c88f67ce3","gameTick":33}


Bot:
{"msgType":"throttle","data":0.657}


Server:
{"msgType":"carPositions","data":[{"id":{"name":"Okboy","color":"red"},"angle":0.0,"piecePosition":{"pieceIndex":0,"inPieceDistance":56.96369936801199,"lane":{"startLaneIndex":0,"endLaneIndex":0},"lap":0}}],"gameId":"558422a7-bde6-415f-a971-c30c88f67ce3","gameTick":34}


Bot:
{"msgType":"throttle","data":0.657}


Server:
{"msgType":"carPositions","data":[{"id":{"name":"Okboy","color":"red"},"angle":0.0,"piecePosition":{"pieceIndex":0,"inPieceDistance":60.16062538065175,"lane":{"startLaneIndex":0,"endLaneIndex":0},"lap":0}}],"gameId":"558422a7-bde6-415f-a971-c30c88f67ce3","gameTick":35}


Bot:
{"msgType":"throttle","data":0.657}


Server:
{"msgType":"carPositions","data":[{"id":{"name":"Okboy","color":"red"},"angle":0.0,"piecePosition":{"pieceIndex":0,"inPieceDistance":63.42501287303872,"lane":{"startLaneIndex":0,"endLaneIndex":0},"lap":0}}],"gameId":"558422a7-bde6-415f-a971-c30c88f67ce3","gameTick":36}


Bot:
{"msgType":"throttle","data":0.657}


Server:
{"msgType":"carPositions","data":[{"id":{"name":"Okboy","color":"red"},"angle":0.0,"piecePosition":{"pieceIndex":0,"inPieceDistance":66.75551261557794,"lane":{"startLaneIndex":0,"endLaneIndex":0},"lap":0}}],"gameId":"558422a7-bde6-415f-a971-c30c88f67ce3","gameTick":37}


Bot:
{"msgType":"throttle","data":0.657}


Server:
{"msgType":"carPositions","data":[{"id":{"name":"Okboy","color":"red"},"angle":0.0,"piecePosition":{"pieceIndex":0,"inPieceDistance":70.15080236326638,"lane":{"startLaneIndex":0,"endLaneIndex":0},"lap":0}}],"gameId":"558422a7-bde6-415f-a971-c30c88f67ce3","gameTick":38}


Bot:
{"msgType":"throttle","data":0.657}


Server:
{"msgType":"carPositions","data":[{"id":{"name":"Okboy","color":"red"},"angle":0.0,"piecePosition":{"pieceIndex":0,"inPieceDistance":73.60958631600106,"lane":{"startLaneIndex":0,"endLaneIndex":0},"lap":0}}],"gameId":"558422a7-bde6-415f-a971-c30c88f67ce3","gameTick":39}


Bot:
{"msgType":"throttle","data":0.657}


Server:
{"msgType":"carPositions","data":[{"id":{"name":"Okboy","color":"red"},"angle":0.0,"piecePosition":{"pieceIndex":0,"inPieceDistance":77.13059458968104,"lane":{"startLaneIndex":0,"endLaneIndex":0},"lap":0}}],"gameId":"558422a7-bde6-415f-a971-c30c88f67ce3","gameTick":40}


Bot:
{"msgType":"throttle","data":0.657}


Server:
{"msgType":"carPositions","data":[{"id":{"name":"Okboy","color":"red"},"angle":0.0,"piecePosition":{"pieceIndex":0,"inPieceDistance":80.71258269788741,"lane":{"startLaneIndex":0,"endLaneIndex":0},"lap":0}}],"gameId":"558422a7-bde6-415f-a971-c30c88f67ce3","gameTick":41}


Bot:
{"msgType":"throttle","data":0.657}


Server:
{"msgType":"carPositions","data":[{"id":{"name":"Okboy","color":"red"},"angle":0.0,"piecePosition":{"pieceIndex":0,"inPieceDistance":84.35433104392966,"lane":{"startLaneIndex":0,"endLaneIndex":0},"lap":0}}],"gameId":"558422a7-bde6-415f-a971-c30c88f67ce3","gameTick":42}


Bot:
{"msgType":"throttle","data":0.657}


Server:
{"msgType":"carPositions","data":[{"id":{"name":"Okboy","color":"red"},"angle":0.0,"piecePosition":{"pieceIndex":0,"inPieceDistance":88.05464442305107,"lane":{"startLaneIndex":0,"endLaneIndex":0},"lap":0}}],"gameId":"558422a7-bde6-415f-a971-c30c88f67ce3","gameTick":43}


Bot:
{"msgType":"throttle","data":0.657}


Server:
{"msgType":"carPositions","data":[{"id":{"name":"Okboy","color":"red"},"angle":0.0,"piecePosition":{"pieceIndex":0,"inPieceDistance":91.81235153459005,"lane":{"startLaneIndex":0,"endLaneIndex":0},"lap":0}}],"gameId":"558422a7-bde6-415f-a971-c30c88f67ce3","gameTick":44}


Bot:
{"msgType":"throttle","data":0.657}


Server:
{"msgType":"carPositions","data":[{"id":{"name":"Okboy","color":"red"},"angle":0.0,"piecePosition":{"pieceIndex":0,"inPieceDistance":95.62630450389825,"lane":{"startLaneIndex":0,"endLaneIndex":0},"lap":0}}],"gameId":"558422a7-bde6-415f-a971-c30c88f67ce3","gameTick":45}


Bot:
{"msgType":"throttle","data":0.657}


Server:
{"msgType":"carPositions","data":[{"id":{"name":"Okboy","color":"red"},"angle":0.0,"piecePosition":{"pieceIndex":0,"inPieceDistance":99.49537841382029,"lane":{"startLaneIndex":0,"endLaneIndex":0},"lap":0}}],"gameId":"558422a7-bde6-415f-a971-c30c88f67ce3","gameTick":46}


Bot:
{"msgType":"throttle","data":0.657}


Server:
{"msgType":"carPositions","data":[{"id":{"name":"Okboy","color":"red"},"angle":0.0,"piecePosition":{"pieceIndex":1,"inPieceDistance":3.4184708455438795,"lane":{"startLaneIndex":0,"endLaneIndex":0},"lap":0}}],"gameId":"558422a7-bde6-415f-a971-c30c88f67ce3","gameTick":47}


Bot:
{"msgType":"throttle","data":0.657}


Server:
{"msgType":"carPositions","data":[{"id":{"name":"Okboy","color":"red"},"angle":0.0,"piecePosition":{"pieceIndex":1,"inPieceDistance":7.394501428633003,"lane":{"startLaneIndex":0,"endLaneIndex":0},"lap":0}}],"gameId":"558422a7-bde6-415f-a971-c30c88f67ce3","gameTick":48}


Bot:
{"msgType":"throttle","data":0.657}


Server:
{"msgType":"carPositions","data":[{"id":{"name":"Okboy","color":"red"},"angle":0.0,"piecePosition":{"pieceIndex":1,"inPieceDistance":11.422411400060344,"lane":{"startLaneIndex":0,"endLaneIndex":0},"lap":0}}],"gameId":"558422a7-bde6-415f-a971-c30c88f67ce3","gameTick":49}


Bot:
{"msgType":"throttle","data":0.657}


Server:
{"msgType":"carPositions","data":[{"id":{"name":"Okboy","color":"red"},"angle":0.0,"piecePosition":{"pieceIndex":1,"inPieceDistance":15.501163172059139,"lane":{"startLaneIndex":0,"endLaneIndex":0},"lap":0}}],"gameId":"558422a7-bde6-415f-a971-c30c88f67ce3","gameTick":50}


Bot:
{"msgType":"throttle","data":0.657}


Server:
{"msgType":"carPositions","data":[{"id":{"name":"Okboy","color":"red"},"angle":0.0,"piecePosition":{"pieceIndex":1,"inPieceDistance":19.629739908617957,"lane":{"startLaneIndex":0,"endLaneIndex":0},"lap":0}}],"gameId":"558422a7-bde6-415f-a971-c30c88f67ce3","gameTick":51}


Bot:
{"msgType":"throttle","data":0.657}


Server:
{"msgType":"carPositions","data":[{"id":{"name":"Okboy","color":"red"},"angle":0.0,"piecePosition":{"pieceIndex":1,"inPieceDistance":23.8071451104456,"lane":{"startLaneIndex":0,"endLaneIndex":0},"lap":0}}],"gameId":"558422a7-bde6-415f-a971-c30c88f67ce3","gameTick":52}


Bot:
{"msgType":"throttle","data":0.657}


Server:
{"msgType":"carPositions","data":[{"id":{"name":"Okboy","color":"red"},"angle":0.0,"piecePosition":{"pieceIndex":1,"inPieceDistance":28.03240220823669,"lane":{"startLaneIndex":0,"endLaneIndex":0},"lap":0}}],"gameId":"558422a7-bde6-415f-a971-c30c88f67ce3","gameTick":53}


Bot:
{"msgType":"throttle","data":0.657}


Server:
{"msgType":"carPositions","data":[{"id":{"name":"Okboy","color":"red"},"angle":0.0,"piecePosition":{"pieceIndex":1,"inPieceDistance":32.30455416407196,"lane":{"startLaneIndex":0,"endLaneIndex":0},"lap":0}}],"gameId":"558422a7-bde6-415f-a971-c30c88f67ce3","gameTick":54}


Bot:
{"msgType":"throttle","data":0.657}


Server:
{"msgType":"carPositions","data":[{"id":{"name":"Okboy","color":"red"},"angle":0.0,"piecePosition":{"pieceIndex":1,"inPieceDistance":36.622663080790524,"lane":{"startLaneIndex":0,"endLaneIndex":0},"lap":0}}],"gameId":"558422a7-bde6-415f-a971-c30c88f67ce3","gameTick":55}


Bot:
{"msgType":"throttle","data":0.657}


Server:
{"msgType":"carPositions","data":[{"id":{"name":"Okboy","color":"red"},"angle":0.0,"piecePosition":{"pieceIndex":1,"inPieceDistance":40.98580981917471,"lane":{"startLaneIndex":0,"endLaneIndex":0},"lap":0}}],"gameId":"558422a7-bde6-415f-a971-c30c88f67ce3","gameTick":56}


Bot:
{"msgType":"throttle","data":0.657}


Server:
{"msgType":"carPositions","data":[{"id":{"name":"Okboy","color":"red"},"angle":0.0,"piecePosition":{"pieceIndex":1,"inPieceDistance":45.39309362279122,"lane":{"startLaneIndex":0,"endLaneIndex":0},"lap":0}}],"gameId":"558422a7-bde6-415f-a971-c30c88f67ce3","gameTick":57}


Bot:
{"msgType":"throttle","data":0.657}


Server:
{"msgType":"carPositions","data":[{"id":{"name":"Okboy","color":"red"},"angle":0.0,"piecePosition":{"pieceIndex":1,"inPieceDistance":49.8436317503354,"lane":{"startLaneIndex":0,"endLaneIndex":0},"lap":0}}],"gameId":"558422a7-bde6-415f-a971-c30c88f67ce3","gameTick":58}


Bot:
{"msgType":"throttle","data":0.657}


Server:
{"msgType":"carPositions","data":[{"id":{"name":"Okboy","color":"red"},"angle":0.0,"piecePosition":{"pieceIndex":1,"inPieceDistance":54.33655911532869,"lane":{"startLaneIndex":0,"endLaneIndex":0},"lap":0}}],"gameId":"558422a7-bde6-415f-a971-c30c88f67ce3","gameTick":59}


Bot:
{"msgType":"throttle","data":0.657}


Server:
{"msgType":"carPositions","data":[{"id":{"name":"Okboy","color":"red"},"angle":0.0,"piecePosition":{"pieceIndex":1,"inPieceDistance":58.87102793302212,"lane":{"startLaneIndex":0,"endLaneIndex":0},"lap":0}}],"gameId":"558422a7-bde6-415f-a971-c30c88f67ce3","gameTick":60}


Bot:
{"msgType":"throttle","data":0.657}


Server:
{"msgType":"carPositions","data":[{"id":{"name":"Okboy","color":"red"},"angle":0.0,"piecePosition":{"pieceIndex":1,"inPieceDistance":63.44620737436168,"lane":{"startLaneIndex":0,"endLaneIndex":0},"lap":0}}],"gameId":"558422a7-bde6-415f-a971-c30c88f67ce3","gameTick":61}


Bot:
{"msgType":"throttle","data":0.657}


Server:
{"msgType":"carPositions","data":[{"id":{"name":"Okboy","color":"red"},"angle":0.0,"piecePosition":{"pieceIndex":1,"inPieceDistance":68.06128322687445,"lane":{"startLaneIndex":0,"endLaneIndex":0},"lap":0}}],"gameId":"558422a7-bde6-415f-a971-c30c88f67ce3","gameTick":62}


Bot:
{"msgType":"throttle","data":0.657}


Server:
{"msgType":"carPositions","data":[{"id":{"name":"Okboy","color":"red"},"angle":0.0,"piecePosition":{"pieceIndex":1,"inPieceDistance":72.71545756233697,"lane":{"startLaneIndex":0,"endLaneIndex":0},"lap":0}}],"gameId":"558422a7-bde6-415f-a971-c30c88f67ce3","gameTick":63}


Bot:
{"msgType":"throttle","data":0.657}


Server:
{"msgType":"carPositions","data":[{"id":{"name":"Okboy","color":"red"},"angle":0.0,"piecePosition":{"pieceIndex":1,"inPieceDistance":77.40794841109023,"lane":{"startLaneIndex":0,"endLaneIndex":0},"lap":0}}],"gameId":"558422a7-bde6-415f-a971-c30c88f67ce3","gameTick":64}


Bot:
{"msgType":"throttle","data":0.657}


Server:
{"msgType":"carPositions","data":[{"id":{"name":"Okboy","color":"red"},"angle":0.0,"piecePosition":{"pieceIndex":1,"inPieceDistance":82.13798944286843,"lane":{"startLaneIndex":0,"endLaneIndex":0},"lap":0}}],"gameId":"558422a7-bde6-415f-a971-c30c88f67ce3","gameTick":65}


Bot:
{"msgType":"throttle","data":0.657}


Server:
{"msgType":"carPositions","data":[{"id":{"name":"Okboy","color":"red"},"angle":0.0,"piecePosition":{"pieceIndex":1,"inPieceDistance":86.90482965401107,"lane":{"startLaneIndex":0,"endLaneIndex":0},"lap":0}}],"gameId":"558422a7-bde6-415f-a971-c30c88f67ce3","gameTick":66}


Bot:
{"msgType":"throttle","data":0.657}


Server:
{"msgType":"carPositions","data":[{"id":{"name":"Okboy","color":"red"},"angle":0.0,"piecePosition":{"pieceIndex":1,"inPieceDistance":91.70773306093085,"lane":{"startLaneIndex":0,"endLaneIndex":0},"lap":0}}],"gameId":"558422a7-bde6-415f-a971-c30c88f67ce3","gameTick":67}


Bot:
{"msgType":"throttle","data":0.657}


Server:
{"msgType":"carPositions","data":[{"id":{"name":"Okboy","color":"red"},"angle":0.0,"piecePosition":{"pieceIndex":1,"inPieceDistance":96.54597839971224,"lane":{"startLaneIndex":0,"endLaneIndex":0},"lap":0}}],"gameId":"558422a7-bde6-415f-a971-c30c88f67ce3","gameTick":68}


Bot:
{"msgType":"throttle","data":0.657}


Server:
{"msgType":"carPositions","data":[{"id":{"name":"Okboy","color":"red"},"angle":0.0,"piecePosition":{"pieceIndex":2,"inPieceDistance":1.4188588317179978,"lane":{"startLaneIndex":0,"endLaneIndex":0},"lap":0}}],"gameId":"558422a7-bde6-415f-a971-c30c88f67ce3","gameTick":69}


Bot:
{"msgType":"throttle","data":0.657}


Server:
{"msgType":"carPositions","data":[{"id":{"name":"Okboy","color":"red"},"angle":0.0,"piecePosition":{"pieceIndex":2,"inPieceDistance":6.32568165508364,"lane":{"startLaneIndex":0,"endLaneIndex":0},"lap":0}}],"gameId":"558422a7-bde6-415f-a971-c30c88f67ce3","gameTick":70}


Bot:
{"msgType":"throttle","data":0.657}


Server:
{"msgType":"carPositions","data":[{"id":{"name":"Okboy","color":"red"},"angle":0.0,"piecePosition":{"pieceIndex":2,"inPieceDistance":11.26576802198197,"lane":{"startLaneIndex":0,"endLaneIndex":0},"lap":0}}],"gameId":"558422a7-bde6-415f-a971-c30c88f67ce3","gameTick":71}


Bot:
{"msgType":"throttle","data":0.657}


Server:
{"msgType":"carPositions","data":[{"id":{"name":"Okboy","color":"red"},"angle":0.0,"piecePosition":{"pieceIndex":2,"inPieceDistance":16.238452661542333,"lane":{"startLaneIndex":0,"endLaneIndex":0},"lap":0}}],"gameId":"558422a7-bde6-415f-a971-c30c88f67ce3","gameTick":72}


Bot:
{"msgType":"throttle","data":0.657}


Server:
{"msgType":"carPositions","data":[{"id":{"name":"Okboy","color":"red"},"angle":0.0,"piecePosition":{"pieceIndex":2,"inPieceDistance":21.243083608311487,"lane":{"startLaneIndex":0,"endLaneIndex":0},"lap":0}}],"gameId":"558422a7-bde6-415f-a971-c30c88f67ce3","gameTick":73}


Bot:
{"msgType":"throttle","data":0.657}


Server:
{"msgType":"carPositions","data":[{"id":{"name":"Okboy","color":"red"},"angle":0.0,"piecePosition":{"pieceIndex":2,"inPieceDistance":26.27902193614526,"lane":{"startLaneIndex":0,"endLaneIndex":0},"lap":0}}],"gameId":"558422a7-bde6-415f-a971-c30c88f67ce3","gameTick":74}


Bot:
{"msgType":"throttle","data":0.657}


Server:
{"msgType":"carPositions","data":[{"id":{"name":"Okboy","color":"red"},"angle":0.0,"piecePosition":{"pieceIndex":2,"inPieceDistance":31.345641497422356,"lane":{"startLaneIndex":0,"endLaneIndex":0},"lap":0}}],"gameId":"558422a7-bde6-415f-a971-c30c88f67ce3","gameTick":75}


Bot:
{"msgType":"throttle","data":0.657}


Server:
{"msgType":"carPositions","data":[{"id":{"name":"Okboy","color":"red"},"angle":0.0,"piecePosition":{"pieceIndex":2,"inPieceDistance":36.442328667473916,"lane":{"startLaneIndex":0,"endLaneIndex":0},"lap":0}}],"gameId":"558422a7-bde6-415f-a971-c30c88f67ce3","gameTick":76}


Bot:
{"msgType":"throttle","data":0.657}


Server:
{"msgType":"carPositions","data":[{"id":{"name":"Okboy","color":"red"},"angle":0.0,"piecePosition":{"pieceIndex":2,"inPieceDistance":41.56848209412444,"lane":{"startLaneIndex":0,"endLaneIndex":0},"lap":0}}],"gameId":"558422a7-bde6-415f-a971-c30c88f67ce3","gameTick":77}


Bot:
{"msgType":"throttle","data":0.657}


Server:
{"msgType":"carPositions","data":[{"id":{"name":"Okboy","color":"red"},"angle":0.0,"piecePosition":{"pieceIndex":2,"inPieceDistance":46.723512452241955,"lane":{"startLaneIndex":0,"endLaneIndex":0},"lap":0}}],"gameId":"558422a7-bde6-415f-a971-c30c88f67ce3","gameTick":78}


Bot:
{"msgType":"throttle","data":0.657}


Server:
{"msgType":"carPositions","data":[{"id":{"name":"Okboy","color":"red"},"angle":0.0,"piecePosition":{"pieceIndex":2,"inPieceDistance":51.90684220319712,"lane":{"startLaneIndex":0,"endLaneIndex":0},"lap":0}}],"gameId":"558422a7-bde6-415f-a971-c30c88f67ce3","gameTick":79}


Bot:
{"msgType":"throttle","data":0.657}


Server:
{"msgType":"carPositions","data":[{"id":{"name":"Okboy","color":"red"},"angle":0.0,"piecePosition":{"pieceIndex":2,"inPieceDistance":57.11790535913318,"lane":{"startLaneIndex":0,"endLaneIndex":0},"lap":0}}],"gameId":"558422a7-bde6-415f-a971-c30c88f67ce3","gameTick":80}


Bot:
{"msgType":"throttle","data":0.657}


Server:
{"msgType":"carPositions","data":[{"id":{"name":"Okboy","color":"red"},"angle":0.0,"piecePosition":{"pieceIndex":2,"inPieceDistance":62.356147251950524,"lane":{"startLaneIndex":0,"endLaneIndex":0},"lap":0}}],"gameId":"558422a7-bde6-415f-a971-c30c88f67ce3","gameTick":81}


Bot:
{"msgType":"throttle","data":0.657}


Server:
{"msgType":"carPositions","data":[{"id":{"name":"Okboy","color":"red"},"angle":0.0,"piecePosition":{"pieceIndex":2,"inPieceDistance":67.62102430691152,"lane":{"startLaneIndex":0,"endLaneIndex":0},"lap":0}}],"gameId":"558422a7-bde6-415f-a971-c30c88f67ce3","gameTick":82}


Bot:
{"msgType":"throttle","data":0.657}


Server:
{"msgType":"carPositions","data":[{"id":{"name":"Okboy","color":"red"},"angle":0.0,"piecePosition":{"pieceIndex":2,"inPieceDistance":72.9120038207733,"lane":{"startLaneIndex":0,"endLaneIndex":0},"lap":0}}],"gameId":"558422a7-bde6-415f-a971-c30c88f67ce3","gameTick":83}


Bot:
{"msgType":"throttle","data":0.657}


Server:
{"msgType":"carPositions","data":[{"id":{"name":"Okboy","color":"red"},"angle":0.0,"piecePosition":{"pieceIndex":2,"inPieceDistance":78.22856374435783,"lane":{"startLaneIndex":0,"endLaneIndex":0},"lap":0}}],"gameId":"558422a7-bde6-415f-a971-c30c88f67ce3","gameTick":84}


Bot:
{"msgType":"throttle","data":0.657}


Server:
{"msgType":"carPositions","data":[{"id":{"name":"Okboy","color":"red"},"angle":0.0,"piecePosition":{"pieceIndex":2,"inPieceDistance":83.57019246947067,"lane":{"startLaneIndex":0,"endLaneIndex":0},"lap":0}}],"gameId":"558422a7-bde6-415f-a971-c30c88f67ce3","gameTick":85}


Bot:
{"msgType":"throttle","data":0.657}


Server:
{"msgType":"carPositions","data":[{"id":{"name":"Okboy","color":"red"},"angle":0.0,"piecePosition":{"pieceIndex":2,"inPieceDistance":88.93638862008126,"lane":{"startLaneIndex":0,"endLaneIndex":0},"lap":0}}],"gameId":"558422a7-bde6-415f-a971-c30c88f67ce3","gameTick":86}


Bot:
{"msgType":"throttle","data":0.657}


Server:
{"msgType":"carPositions","data":[{"id":{"name":"Okboy","color":"red"},"angle":0.0,"piecePosition":{"pieceIndex":2,"inPieceDistance":94.32666084767963,"lane":{"startLaneIndex":0,"endLaneIndex":0},"lap":0}}],"gameId":"558422a7-bde6-415f-a971-c30c88f67ce3","gameTick":87}


Bot:
{"msgType":"throttle","data":0.657}


Server:
{"msgType":"carPositions","data":[{"id":{"name":"Okboy","color":"red"},"angle":0.0,"piecePosition":{"pieceIndex":2,"inPieceDistance":99.74052763072605,"lane":{"startLaneIndex":0,"endLaneIndex":0},"lap":0}}],"gameId":"558422a7-bde6-415f-a971-c30c88f67ce3","gameTick":88}


Bot:
{"msgType":"throttle","data":0.657}


Server:
{"msgType":"carPositions","data":[{"id":{"name":"Okboy","color":"red"},"angle":0.0,"piecePosition":{"pieceIndex":3,"inPieceDistance":5.177517078111535,"lane":{"startLaneIndex":0,"endLaneIndex":0},"lap":0}}],"gameId":"558422a7-bde6-415f-a971-c30c88f67ce3","gameTick":89}


Bot:
{"msgType":"throttle","data":0.657}


Server:
{"msgType":"carPositions","data":[{"id":{"name":"Okboy","color":"red"},"angle":0.0,"piecePosition":{"pieceIndex":3,"inPieceDistance":10.637166736549307,"lane":{"startLaneIndex":0,"endLaneIndex":0},"lap":0}}],"gameId":"558422a7-bde6-415f-a971-c30c88f67ce3","gameTick":90}


Bot:
{"msgType":"throttle","data":0.657}


Server:
{"msgType":"carPositions","data":[{"id":{"name":"Okboy","color":"red"},"angle":0.0,"piecePosition":{"pieceIndex":3,"inPieceDistance":16.119023401818325,"lane":{"startLaneIndex":0,"endLaneIndex":0},"lap":0}}],"gameId":"558422a7-bde6-415f-a971-c30c88f67ce3","gameTick":91}


Bot:
{"msgType":"throttle","data":0.657}


Server:
{"msgType":"carPositions","data":[{"id":{"name":"Okboy","color":"red"},"angle":0.0,"piecePosition":{"pieceIndex":3,"inPieceDistance":21.62264293378196,"lane":{"startLaneIndex":0,"endLaneIndex":0},"lap":0}}],"gameId":"558422a7-bde6-415f-a971-c30c88f67ce3","gameTick":92}


Bot:
{"msgType":"throttle","data":0.657}


Server:
{"msgType":"carPositions","data":[{"id":{"name":"Okboy","color":"red"},"angle":0.0,"piecePosition":{"pieceIndex":3,"inPieceDistance":27.147590075106326,"lane":{"startLaneIndex":0,"endLaneIndex":0},"lap":0}}],"gameId":"558422a7-bde6-415f-a971-c30c88f67ce3","gameTick":93}


Bot:
{"msgType":"throttle","data":0.657}


Server:
{"msgType":"carPositions","data":[{"id":{"name":"Okboy","color":"red"},"angle":0.0,"piecePosition":{"pieceIndex":3,"inPieceDistance":32.6934382736042,"lane":{"startLaneIndex":0,"endLaneIndex":0},"lap":0}}],"gameId":"558422a7-bde6-415f-a971-c30c88f67ce3","gameTick":94}


Bot:
{"msgType":"throttle","data":0.657}


Server:
{"msgType":"carPositions","data":[{"id":{"name":"Okboy","color":"red"},"angle":0.0,"piecePosition":{"pieceIndex":3,"inPieceDistance":38.25976950813212,"lane":{"startLaneIndex":0,"endLaneIndex":0},"lap":0}}],"gameId":"558422a7-bde6-415f-a971-c30c88f67ce3","gameTick":95}


Bot:
{"msgType":"throttle","data":0.657}


Server:
{"msgType":"carPositions","data":[{"id":{"name":"Okboy","color":"red"},"angle":0.0,"piecePosition":{"pieceIndex":3,"inPieceDistance":43.84617411796948,"lane":{"startLaneIndex":0,"endLaneIndex":0},"lap":0}}],"gameId":"558422a7-bde6-415f-a971-c30c88f67ce3","gameTick":96}


Bot:
{"msgType":"throttle","data":0.657}


Server:
{"msgType":"carPositions","data":[{"id":{"name":"Okboy","color":"red"},"angle":0.0,"piecePosition":{"pieceIndex":3,"inPieceDistance":49.4522506356101,"lane":{"startLaneIndex":0,"endLaneIndex":0},"lap":0}}],"gameId":"558422a7-bde6-415f-a971-c30c88f67ce3","gameTick":97}


Bot:
{"msgType":"throttle","data":0.657}


Server:
{"msgType":"carPositions","data":[{"id":{"name":"Okboy","color":"red"},"angle":0.0,"piecePosition":{"pieceIndex":3,"inPieceDistance":55.0776056228979,"lane":{"startLaneIndex":0,"endLaneIndex":0},"lap":0}}],"gameId":"558422a7-bde6-415f-a971-c30c88f67ce3","gameTick":98}


Bot:
{"msgType":"throttle","data":0.657}


Server:
{"msgType":"carPositions","data":[{"id":{"name":"Okboy","color":"red"},"angle":0.0,"piecePosition":{"pieceIndex":3,"inPieceDistance":60.72185351043994,"lane":{"startLaneIndex":0,"endLaneIndex":0},"lap":0}}],"gameId":"558422a7-bde6-415f-a971-c30c88f67ce3","gameTick":99}


Bot:
{"msgType":"throttle","data":0.657}


Server:
{"msgType":"carPositions","data":[{"id":{"name":"Okboy","color":"red"},"angle":0.0,"piecePosition":{"pieceIndex":3,"inPieceDistance":66.38461644023114,"lane":{"startLaneIndex":0,"endLaneIndex":0},"lap":0}}],"gameId":"558422a7-bde6-415f-a971-c30c88f67ce3","gameTick":100}


Bot:
{"msgType":"throttle","data":0.657}


Server:
{"msgType":"carPositions","data":[{"id":{"name":"Okboy","color":"red"},"angle":0.0,"piecePosition":{"pieceIndex":3,"inPieceDistance":72.06552411142653,"lane":{"startLaneIndex":0,"endLaneIndex":0},"lap":0}}],"gameId":"558422a7-bde6-415f-a971-c30c88f67ce3","gameTick":101}


Bot:
{"msgType":"throttle","data":0.657}


Server:
{"msgType":"carPositions","data":[{"id":{"name":"Okboy","color":"red"},"angle":0.0,"piecePosition":{"pieceIndex":3,"inPieceDistance":77.764213629198,"lane":{"startLaneIndex":0,"endLaneIndex":0},"lap":0}}],"gameId":"558422a7-bde6-415f-a971-c30c88f67ce3","gameTick":102}


Bot:
{"msgType":"throttle","data":0.657}


Server:
{"msgType":"carPositions","data":[{"id":{"name":"Okboy","color":"red"},"angle":0.0,"piecePosition":{"pieceIndex":3,"inPieceDistance":83.48032935661404,"lane":{"startLaneIndex":0,"endLaneIndex":0},"lap":0}}],"gameId":"558422a7-bde6-415f-a971-c30c88f67ce3","gameTick":103}


Bot:
{"msgType":"throttle","data":0.657}


Server:
{"msgType":"carPositions","data":[{"id":{"name":"Okboy","color":"red"},"angle":0.0,"piecePosition":{"pieceIndex":3,"inPieceDistance":89.21352276948176,"lane":{"startLaneIndex":0,"endLaneIndex":0},"lap":0}}],"gameId":"558422a7-bde6-415f-a971-c30c88f67ce3","gameTick":104}


Bot:
{"msgType":"throttle","data":0.657}


Server:
{"msgType":"carPositions","data":[{"id":{"name":"Okboy","color":"red"},"angle":0.0,"piecePosition":{"pieceIndex":3,"inPieceDistance":94.96345231409212,"lane":{"startLaneIndex":0,"endLaneIndex":0},"lap":0}}],"gameId":"558422a7-bde6-415f-a971-c30c88f67ce3","gameTick":105}


Bot:
{"msgType":"throttle","data":0.657}


Server:
{"msgType":"carPositions","data":[{"id":{"name":"Okboy","color":"red"},"angle":0.0,"piecePosition":{"pieceIndex":4,"inPieceDistance":0.7297832678102907,"lane":{"startLaneIndex":0,"endLaneIndex":0},"lap":0}}],"gameId":"558422a7-bde6-415f-a971-c30c88f67ce3","gameTick":106}


Bot:
{"msgType":"throttle","data":0.657}


Server:
{"msgType":"carPositions","data":[{"id":{"name":"Okboy","color":"red"},"angle":0.0,"piecePosition":{"pieceIndex":4,"inPieceDistance":6.512187602454088,"lane":{"startLaneIndex":0,"endLaneIndex":0},"lap":0}}],"gameId":"558422a7-bde6-415f-a971-c30c88f67ce3","gameTick":107}


Bot:
{"msgType":"throttle","data":0.657}


Server:
{"msgType":"carPositions","data":[{"id":{"name":"Okboy","color":"red"},"angle":0.0,"piecePosition":{"pieceIndex":4,"inPieceDistance":12.31034385040501,"lane":{"startLaneIndex":0,"endLaneIndex":0},"lap":0}}],"gameId":"558422a7-bde6-415f-a971-c30c88f67ce3","gameTick":108}


Bot:
{"msgType":"throttle","data":0.657}


Server:
{"msgType":"carPositions","data":[{"id":{"name":"Okboy","color":"red"},"angle":0.0,"piecePosition":{"pieceIndex":4,"inPieceDistance":18.123936973396912,"lane":{"startLaneIndex":0,"endLaneIndex":0},"lap":0}}],"gameId":"558422a7-bde6-415f-a971-c30c88f67ce3","gameTick":109}


Bot:
{"msgType":"throttle","data":0.657}


Server:
{"msgType":"carPositions","data":[{"id":{"name":"Okboy","color":"red"},"angle":0.0,"piecePosition":{"pieceIndex":4,"inPieceDistance":23.95265823392898,"lane":{"startLaneIndex":0,"endLaneIndex":0},"lap":0}}],"gameId":"558422a7-bde6-415f-a971-c30c88f67ce3","gameTick":110}


Bot:
{"msgType":"throttle","data":0.657}


Server:
{"msgType":"carPositions","data":[{"id":{"name":"Okboy","color":"red"},"angle":0.0,"piecePosition":{"pieceIndex":4,"inPieceDistance":29.7962050692504,"lane":{"startLaneIndex":0,"endLaneIndex":0},"lap":0}}],"gameId":"558422a7-bde6-415f-a971-c30c88f67ce3","gameTick":111}


Bot:
{"msgType":"throttle","data":0.657}


Server:
{"msgType":"carPositions","data":[{"id":{"name":"Okboy","color":"red"},"angle":0.0,"piecePosition":{"pieceIndex":4,"inPieceDistance":35.6542809678654,"lane":{"startLaneIndex":0,"endLaneIndex":0},"lap":0}}],"gameId":"558422a7-bde6-415f-a971-c30c88f67ce3","gameTick":112}


Bot:
{"msgType":"throttle","data":0.657}


Server:
{"msgType":"carPositions","data":[{"id":{"name":"Okboy","color":"red"},"angle":0.0,"piecePosition":{"pieceIndex":4,"inPieceDistance":41.526595348508096,"lane":{"startLaneIndex":0,"endLaneIndex":0},"lap":0}}],"gameId":"558422a7-bde6-415f-a971-c30c88f67ce3","gameTick":113}


Bot:
{"msgType":"throttle","data":0.657}


Server:
{"msgType":"carPositions","data":[{"id":{"name":"Okboy","color":"red"},"angle":0.0,"piecePosition":{"pieceIndex":4,"inPieceDistance":47.41286344153794,"lane":{"startLaneIndex":0,"endLaneIndex":0},"lap":0}}],"gameId":"558422a7-bde6-415f-a971-c30c88f67ce3","gameTick":114}


Bot:
{"msgType":"throttle","data":0.657}


Server:
{"msgType":"carPositions","data":[{"id":{"name":"Okboy","color":"red"},"angle":0.0,"piecePosition":{"pieceIndex":4,"inPieceDistance":53.312806172707184,"lane":{"startLaneIndex":0,"endLaneIndex":0},"lap":0}}],"gameId":"558422a7-bde6-415f-a971-c30c88f67ce3","gameTick":115}


Bot:
{"msgType":"throttle","data":0.657}


Server:
{"msgType":"carPositions","data":[{"id":{"name":"Okboy","color":"red"},"angle":0.0,"piecePosition":{"pieceIndex":4,"inPieceDistance":59.22615004925304,"lane":{"startLaneIndex":0,"endLaneIndex":0},"lap":0}}],"gameId":"558422a7-bde6-415f-a971-c30c88f67ce3","gameTick":116}


Bot:
{"msgType":"throttle","data":0.657}


Server:
{"msgType":"carPositions","data":[{"id":{"name":"Okboy","color":"red"},"angle":0.0,"piecePosition":{"pieceIndex":4,"inPieceDistance":65.15262704826799,"lane":{"startLaneIndex":0,"endLaneIndex":0},"lap":0}}],"gameId":"558422a7-bde6-415f-a971-c30c88f67ce3","gameTick":117}


Bot:
{"msgType":"throttle","data":0.657}


Server:
{"msgType":"carPositions","data":[{"id":{"name":"Okboy","color":"red"},"angle":0.0,"piecePosition":{"pieceIndex":4,"inPieceDistance":71.09197450730264,"lane":{"startLaneIndex":0,"endLaneIndex":0},"lap":0}}],"gameId":"558422a7-bde6-415f-a971-c30c88f67ce3","gameTick":118}


Bot:
{"msgType":"throttle","data":0.657}


Server:
{"msgType":"carPositions","data":[{"id":{"name":"Okboy","color":"red"},"angle":0.001918664622350647,"piecePosition":{"pieceIndex":4,"inPieceDistance":77.04393501715658,"lane":{"startLaneIndex":0,"endLaneIndex":0},"lap":0}}],"gameId":"558422a7-bde6-41